//Maya ASCII 2016ff07 scene
//Name: Flaky_001.ma
//Last modified: Tue, Dec 01, 2015 06:10:21 PM
//Codeset: 1252
requires maya "2016ff07";
requires -nodeType "VRaySettingsNode" -nodeType "VRayMtl" -nodeType "VRayBlendMtl"
		 "vrayformaya" "3.10.01";
requires -nodeType "RedshiftOptions" "redshift4maya" "1.2.82";
currentUnit -l centimeter -a degree -t pal;
fileInfo "application" "maya";
fileInfo "product" "Maya 2016";
fileInfo "version" "2016";
fileInfo "cutIdentifier" "201510022200-973226-1";
fileInfo "osv" "Microsoft Windows 7 Home Premium Edition, 64-bit Windows 7 Service Pack 1 (Build 7601)\n";
createNode transform -s -n "persp";
	rename -uid "E54E7269-4DE4-0717-06D2-8F85EEEF7316";
	setAttr ".v" no;
	setAttr ".t" -type "double3" 119 89 119 ;
	setAttr ".r" -type "double3" -27.87188149736183 44.999999999999972 -8.5461687761503905e-014 ;
createNode camera -s -n "perspShape" -p "persp";
	rename -uid "7F251FB5-4B39-5071-781A-9FB3B052D925";
	addAttr -ci true -sn "rsCameraType" -ln "rsCameraType" -min 0 -max 5 -en "Standard:Fisheye=2:Spherical:Cylindrical:Stereo Spherical" 
		-at "enum";
	addAttr -ci true -sn "rsFisheyeScaleX" -ln "rsFisheyeScaleX" -dv 1 -min 0 -max 3.4028234600000001e+038 
		-smn 0.1 -smx 10 -at "double";
	addAttr -ci true -sn "rsFisheyeScaleY" -ln "rsFisheyeScaleY" -dv 1 -min 0 -max 3.4028234600000001e+038 
		-smn 0.1 -smx 10 -at "double";
	addAttr -ci true -sn "rsFisheyeAngle" -ln "rsFisheyeAngle" -dv 180 -min 1 -max 180 
		-at "double";
	addAttr -ci true -sn "rsCylindricalIsOrtho" -ln "rsCylindricalIsOrtho" -min 0 -max 
		1 -at "bool";
	addAttr -ci true -sn "rsCylindricalFovH" -ln "rsCylindricalFovH" -dv 360 -min 0 
		-max 360 -at "double";
	addAttr -ci true -sn "rsCylindricalFovV" -ln "rsCylindricalFovV" -dv 180 -min 0 
		-max 180 -at "double";
	addAttr -ci true -sn "rsCylindricalOrthoHeight" -ln "rsCylindricalOrthoHeight" -dv 
		100 -min 0 -max 3.4028234600000001e+038 -smn 1 -smx 500 -at "double";
	addAttr -ci true -k true -sn "rsStereoSphericalMode" -ln "rsStereoSphericalMode" 
		-min 0 -max 3 -en "Side By Side:Top Bottom:Left Only:Right Only" -at "enum";
	addAttr -ci true -sn "rsStereoSphericalSeparation" -ln "rsStereoSphericalSeparation" 
		-min 0 -max 3.4028234600000001e+038 -at "double";
	addAttr -ci true -sn "rsStereoCubeSeparation" -ln "rsStereoCubeSeparation" -min 
		0 -max 3.4028234600000001e+038 -at "double";
	addAttr -s false -ci true -sn "rsEnvironmentShader" -ln "rsEnvironmentShader" -at "message";
	addAttr -s false -ci true -sn "rsLensShader" -ln "rsLensShader" -at "message";
	addAttr -s false -ci true -m -sn "rsLensShaderList" -ln "rsLensShaderList" -at "message";
	setAttr -k off ".v" no;
	setAttr ".fl" 34.999999999999993;
	setAttr ".coi" 190.37594385846126;
	setAttr ".imn" -type "string" "persp";
	setAttr ".den" -type "string" "persp_depth";
	setAttr ".man" -type "string" "persp_mask";
	setAttr ".hc" -type "string" "viewSet -p %camera";
createNode transform -s -n "top";
	rename -uid "4A8E23F2-4104-C336-9854-C891186C5B14";
	setAttr ".v" no;
	setAttr ".t" -type "double3" 0 100.1 0 ;
	setAttr ".r" -type "double3" -89.999999999999986 0 0 ;
createNode camera -s -n "topShape" -p "top";
	rename -uid "CF9BF1B2-4503-9C22-B722-45B074736067";
	addAttr -ci true -sn "rsCameraType" -ln "rsCameraType" -min 0 -max 5 -en "Standard:Fisheye=2:Spherical:Cylindrical:Stereo Spherical" 
		-at "enum";
	addAttr -ci true -sn "rsFisheyeScaleX" -ln "rsFisheyeScaleX" -dv 1 -min 0 -max 3.4028234600000001e+038 
		-smn 0.1 -smx 10 -at "double";
	addAttr -ci true -sn "rsFisheyeScaleY" -ln "rsFisheyeScaleY" -dv 1 -min 0 -max 3.4028234600000001e+038 
		-smn 0.1 -smx 10 -at "double";
	addAttr -ci true -sn "rsFisheyeAngle" -ln "rsFisheyeAngle" -dv 180 -min 1 -max 180 
		-at "double";
	addAttr -ci true -sn "rsCylindricalIsOrtho" -ln "rsCylindricalIsOrtho" -min 0 -max 
		1 -at "bool";
	addAttr -ci true -sn "rsCylindricalFovH" -ln "rsCylindricalFovH" -dv 360 -min 0 
		-max 360 -at "double";
	addAttr -ci true -sn "rsCylindricalFovV" -ln "rsCylindricalFovV" -dv 180 -min 0 
		-max 180 -at "double";
	addAttr -ci true -sn "rsCylindricalOrthoHeight" -ln "rsCylindricalOrthoHeight" -dv 
		100 -min 0 -max 3.4028234600000001e+038 -smn 1 -smx 500 -at "double";
	addAttr -ci true -k true -sn "rsStereoSphericalMode" -ln "rsStereoSphericalMode" 
		-min 0 -max 3 -en "Side By Side:Top Bottom:Left Only:Right Only" -at "enum";
	addAttr -ci true -sn "rsStereoSphericalSeparation" -ln "rsStereoSphericalSeparation" 
		-min 0 -max 3.4028234600000001e+038 -at "double";
	addAttr -ci true -sn "rsStereoCubeSeparation" -ln "rsStereoCubeSeparation" -min 
		0 -max 3.4028234600000001e+038 -at "double";
	addAttr -s false -ci true -sn "rsEnvironmentShader" -ln "rsEnvironmentShader" -at "message";
	addAttr -s false -ci true -sn "rsLensShader" -ln "rsLensShader" -at "message";
	addAttr -s false -ci true -m -sn "rsLensShaderList" -ln "rsLensShaderList" -at "message";
	setAttr -k off ".v" no;
	setAttr ".rnd" no;
	setAttr ".coi" 100.1;
	setAttr ".ow" 30;
	setAttr ".imn" -type "string" "top";
	setAttr ".den" -type "string" "top_depth";
	setAttr ".man" -type "string" "top_mask";
	setAttr ".hc" -type "string" "viewSet -t %camera";
	setAttr ".o" yes;
createNode transform -s -n "front";
	rename -uid "8345477E-4BCA-2BDF-C10D-038C94C00909";
	setAttr ".v" no;
	setAttr ".t" -type "double3" 0 0 100.1 ;
createNode camera -s -n "frontShape" -p "front";
	rename -uid "F3F178E1-48D1-8122-D975-AF88F04D0841";
	addAttr -ci true -sn "rsCameraType" -ln "rsCameraType" -min 0 -max 5 -en "Standard:Fisheye=2:Spherical:Cylindrical:Stereo Spherical" 
		-at "enum";
	addAttr -ci true -sn "rsFisheyeScaleX" -ln "rsFisheyeScaleX" -dv 1 -min 0 -max 3.4028234600000001e+038 
		-smn 0.1 -smx 10 -at "double";
	addAttr -ci true -sn "rsFisheyeScaleY" -ln "rsFisheyeScaleY" -dv 1 -min 0 -max 3.4028234600000001e+038 
		-smn 0.1 -smx 10 -at "double";
	addAttr -ci true -sn "rsFisheyeAngle" -ln "rsFisheyeAngle" -dv 180 -min 1 -max 180 
		-at "double";
	addAttr -ci true -sn "rsCylindricalIsOrtho" -ln "rsCylindricalIsOrtho" -min 0 -max 
		1 -at "bool";
	addAttr -ci true -sn "rsCylindricalFovH" -ln "rsCylindricalFovH" -dv 360 -min 0 
		-max 360 -at "double";
	addAttr -ci true -sn "rsCylindricalFovV" -ln "rsCylindricalFovV" -dv 180 -min 0 
		-max 180 -at "double";
	addAttr -ci true -sn "rsCylindricalOrthoHeight" -ln "rsCylindricalOrthoHeight" -dv 
		100 -min 0 -max 3.4028234600000001e+038 -smn 1 -smx 500 -at "double";
	addAttr -ci true -k true -sn "rsStereoSphericalMode" -ln "rsStereoSphericalMode" 
		-min 0 -max 3 -en "Side By Side:Top Bottom:Left Only:Right Only" -at "enum";
	addAttr -ci true -sn "rsStereoSphericalSeparation" -ln "rsStereoSphericalSeparation" 
		-min 0 -max 3.4028234600000001e+038 -at "double";
	addAttr -ci true -sn "rsStereoCubeSeparation" -ln "rsStereoCubeSeparation" -min 
		0 -max 3.4028234600000001e+038 -at "double";
	addAttr -s false -ci true -sn "rsEnvironmentShader" -ln "rsEnvironmentShader" -at "message";
	addAttr -s false -ci true -sn "rsLensShader" -ln "rsLensShader" -at "message";
	addAttr -s false -ci true -m -sn "rsLensShaderList" -ln "rsLensShaderList" -at "message";
	setAttr -k off ".v" no;
	setAttr ".rnd" no;
	setAttr ".coi" 100.1;
	setAttr ".ow" 30;
	setAttr ".imn" -type "string" "front";
	setAttr ".den" -type "string" "front_depth";
	setAttr ".man" -type "string" "front_mask";
	setAttr ".hc" -type "string" "viewSet -f %camera";
	setAttr ".o" yes;
createNode transform -s -n "side";
	rename -uid "E680B078-470B-0E12-4637-50840166C74E";
	setAttr ".v" no;
	setAttr ".t" -type "double3" 100.1 0 0 ;
	setAttr ".r" -type "double3" 0 89.999999999999986 0 ;
createNode camera -s -n "sideShape" -p "side";
	rename -uid "1B95D106-4CB3-CBB9-9102-EBBD45E7FFD4";
	addAttr -ci true -sn "rsCameraType" -ln "rsCameraType" -min 0 -max 5 -en "Standard:Fisheye=2:Spherical:Cylindrical:Stereo Spherical" 
		-at "enum";
	addAttr -ci true -sn "rsFisheyeScaleX" -ln "rsFisheyeScaleX" -dv 1 -min 0 -max 3.4028234600000001e+038 
		-smn 0.1 -smx 10 -at "double";
	addAttr -ci true -sn "rsFisheyeScaleY" -ln "rsFisheyeScaleY" -dv 1 -min 0 -max 3.4028234600000001e+038 
		-smn 0.1 -smx 10 -at "double";
	addAttr -ci true -sn "rsFisheyeAngle" -ln "rsFisheyeAngle" -dv 180 -min 1 -max 180 
		-at "double";
	addAttr -ci true -sn "rsCylindricalIsOrtho" -ln "rsCylindricalIsOrtho" -min 0 -max 
		1 -at "bool";
	addAttr -ci true -sn "rsCylindricalFovH" -ln "rsCylindricalFovH" -dv 360 -min 0 
		-max 360 -at "double";
	addAttr -ci true -sn "rsCylindricalFovV" -ln "rsCylindricalFovV" -dv 180 -min 0 
		-max 180 -at "double";
	addAttr -ci true -sn "rsCylindricalOrthoHeight" -ln "rsCylindricalOrthoHeight" -dv 
		100 -min 0 -max 3.4028234600000001e+038 -smn 1 -smx 500 -at "double";
	addAttr -ci true -k true -sn "rsStereoSphericalMode" -ln "rsStereoSphericalMode" 
		-min 0 -max 3 -en "Side By Side:Top Bottom:Left Only:Right Only" -at "enum";
	addAttr -ci true -sn "rsStereoSphericalSeparation" -ln "rsStereoSphericalSeparation" 
		-min 0 -max 3.4028234600000001e+038 -at "double";
	addAttr -ci true -sn "rsStereoCubeSeparation" -ln "rsStereoCubeSeparation" -min 
		0 -max 3.4028234600000001e+038 -at "double";
	addAttr -s false -ci true -sn "rsEnvironmentShader" -ln "rsEnvironmentShader" -at "message";
	addAttr -s false -ci true -sn "rsLensShader" -ln "rsLensShader" -at "message";
	addAttr -s false -ci true -m -sn "rsLensShaderList" -ln "rsLensShaderList" -at "message";
	setAttr -k off ".v" no;
	setAttr ".rnd" no;
	setAttr ".coi" 100.1;
	setAttr ".ow" 30;
	setAttr ".imn" -type "string" "side";
	setAttr ".den" -type "string" "side_depth";
	setAttr ".man" -type "string" "side_mask";
	setAttr ".hc" -type "string" "viewSet -s %camera";
	setAttr ".o" yes;
createNode VRayBlendMtl -n "vRay_Metal_Flaky_001_MAT";
	rename -uid "D1D5ED91-4012-6DE7-CB3E-8DA72BBC157D";
	setAttr ".ba0" -type "float3" 1 1 1 ;
	setAttr ".am" yes;
createNode shadingEngine -n "vRay_Metal_Flaky_001SG";
	rename -uid "C9FFA608-4D7E-43FE-68FA-2D809F315B2A";
	addAttr -s false -ci true -sn "rsSurfaceShader" -ln "rsSurfaceShader" -at "message";
	addAttr -s false -ci true -sn "rsShadowShader" -ln "rsShadowShader" -at "message";
	addAttr -s false -ci true -sn "rsPhotonShader" -ln "rsPhotonShader" -at "message";
	addAttr -s false -ci true -sn "rsEnvironmentShader" -ln "rsEnvironmentShader" -at "message";
	addAttr -s false -ci true -sn "rsBumpmapShader" -ln "rsBumpmapShader" -at "message";
	addAttr -s false -ci true -sn "rsDisplacementShader" -ln "rsDisplacementShader" 
		-at "message";
	addAttr -ci true -sn "rsMaterialId" -ln "rsMaterialId" -min 0 -max 2147483647 -smn 
		0 -smx 100 -at "long";
	setAttr ".ihi" 0;
	setAttr ".ro" yes;
createNode VRayMtl -n "vRay_Metal_Flaky_001_VRayMtl_01";
	rename -uid "B2092F25-4001-6B45-D0B2-4DA8D8CFCA5F";
	addAttr -ci true -h true -sn "aal" -ln "attributeAliasList" -dt "attributeAlias";
	setAttr ".rlmd" 3;
	setAttr ".dc" -type "float3" 0 0.14824803 0.26100001 ;
	setAttr ".dca" 0.25;
	setAttr ".rlc" -type "float3" 0.51102465 0.78571755 1 ;
	setAttr ".rlmi" -2;
	setAttr ".rlma" -2;
	setAttr ".uf" yes;
	setAttr ".fde" yes;
	setAttr ".rrc" -type "float3" 1 1 1 ;
	setAttr ".rrca" 0;
	setAttr ".rior" 3;
	setAttr ".cth" 0.0010000000474974513;
	setAttr ".bmt" 1;
	setAttr ".aal" -type "attributeAlias" {"color","diffuseColor"} ;
createNode file -n "vRay_Metal_Flaky_001_File01";
	rename -uid "0BA86321-4F32-55A6-DB45-429FD68933CD";
	addAttr -ci true -k true -sn "rsFilterEnable" -ln "rsFilterEnable" -dv 2 -min 0 
		-max 2 -en "None:Magnification:Magnification/Minification" -at "enum";
	addAttr -ci true -sn "rsMipBias" -ln "rsMipBias" -min -31 -max 31 -at "double";
	addAttr -ci true -sn "rsBicubicFiltering" -ln "rsBicubicFiltering" -min 0 -max 1 
		-at "bool";
	addAttr -ci true -sn "rsPreferSharpFiltering" -ln "rsPreferSharpFiltering" -dv 1 
		-min 0 -max 1 -at "bool";
	addAttr -ci true -k true -sn "rsAlphaMode" -ln "rsAlphaMode" -min 0 -max 2 -en "None:Coverage:Pre-Multiplied" 
		-at "enum";
	addAttr -ci true -sn "vrayFileGammaEnable" -ln "vrayFileGammaEnable" -dv 1 -at "long";
	addAttr -ci true -sn "vrayFileColorSpace" -ln "vrayFileColorSpace" -dv 1 -at "long";
	addAttr -ci true -sn "vrayFileGammaValue" -ln "vrayFileGammaValue" -dv 2.2000000476837158 
		-min 0.05000000074505806 -max 20 -smx 3 -at "float";
	setAttr ".ail" yes;
	setAttr ".ftn" -type "string" "${SLiBLib}shader/Metal_vRay_Samples/Flaky_001/Tex/Flakes_01_NORM.png";
	setAttr ".ft" 0;
	setAttr ".cs" -type "string" "sRGB";
	setAttr ".vrayFileGammaEnable" 0;
createNode place2dTexture -n "vRay_Metal_Flaky_001_p2d01";
	rename -uid "BA782F3C-4E97-CFDA-A904-F680B296F427";
	addAttr -ci true -sn "ruv" -ln "rsUvSet" -dt "string";
	setAttr ".re" -type "float2" 3 3 ;
createNode VRayMtl -n "vRay_Metal_Flaky_001_VRayMtl_02";
	rename -uid "CE3D0DB7-477E-1C49-65AB-C2A7523C7F53";
	addAttr -ci true -h true -sn "aal" -ln "attributeAliasList" -dt "attributeAlias";
	setAttr ".rlmd" 3;
	setAttr ".dc" -type "float3" 0 0 0 ;
	setAttr ".dca" 0;
	setAttr ".rlc" -type "float3" 1 1 1 ;
	setAttr ".uf" yes;
	setAttr ".fde" yes;
	setAttr ".rrc" -type "float3" 1 1 1 ;
	setAttr ".rrca" 0;
	setAttr ".rior" 2;
	setAttr ".cth" 0.0010000000474974513;
	setAttr ".aal" -type "attributeAlias" {"color","diffuseColor"} ;
createNode materialInfo -n "materialInfo113";
	rename -uid "DDC79FAB-421A-E3B2-B84C-F591863C0309";
createNode lightLinker -s -n "lightLinker1";
	rename -uid "2BDBF86D-48C1-9173-2FB2-08A8B812A128";
	setAttr -s 3 ".lnk";
	setAttr -s 3 ".slnk";
createNode displayLayerManager -n "layerManager";
	rename -uid "3DDA35E6-4892-DD0E-5196-2FB5A02DF548";
createNode displayLayer -n "defaultLayer";
	rename -uid "33320A88-45B5-D192-BB11-E584508F9F45";
createNode renderLayerManager -n "renderLayerManager";
	rename -uid "1441B0FD-4447-2157-01F6-23AF1D6C018B";
createNode renderLayer -n "defaultRenderLayer";
	rename -uid "33FAF0BF-4035-266C-C59D-46AFDA3E6DE6";
	setAttr ".g" yes;
createNode script -n "uiConfigurationScriptNode";
	rename -uid "E1CAC548-4F17-059B-3471-E4885A78AA17";
	setAttr ".b" -type "string" (
		"// Maya Mel UI Configuration File.\n//\n//  This script is machine generated.  Edit at your own risk.\n//\n//\n\nglobal string $gMainPane;\nif (`paneLayout -exists $gMainPane`) {\n\n\tglobal int $gUseScenePanelConfig;\n\tint    $useSceneConfig = $gUseScenePanelConfig;\n\tint    $menusOkayInPanels = `optionVar -q allowMenusInPanels`;\tint    $nVisPanes = `paneLayout -q -nvp $gMainPane`;\n\tint    $nPanes = 0;\n\tstring $editorName;\n\tstring $panelName;\n\tstring $itemFilterName;\n\tstring $panelConfig;\n\n\t//\n\t//  get current state of the UI\n\t//\n\tsceneUIReplacement -update $gMainPane;\n\n\t$panelName = `sceneUIReplacement -getNextPanel \"modelPanel\" (localizedPanelLabel(\"Top View\")) `;\n\tif (\"\" == $panelName) {\n\t\tif ($useSceneConfig) {\n\t\t\t$panelName = `modelPanel -unParent -l (localizedPanelLabel(\"Top View\")) -mbv $menusOkayInPanels `;\n\t\t\t$editorName = $panelName;\n            modelEditor -e \n                -camera \"top\" \n                -useInteractiveMode 0\n                -displayLights \"default\" \n                -displayAppearance \"smoothShaded\" \n"
		+ "                -activeOnly 0\n                -ignorePanZoom 0\n                -wireframeOnShaded 0\n                -headsUpDisplay 1\n                -holdOuts 1\n                -selectionHiliteDisplay 1\n                -useDefaultMaterial 0\n                -bufferMode \"double\" \n                -twoSidedLighting 0\n                -backfaceCulling 0\n                -xray 0\n                -jointXray 0\n                -activeComponentsXray 0\n                -displayTextures 0\n                -smoothWireframe 0\n                -lineWidth 1\n                -textureAnisotropic 0\n                -textureHilight 1\n                -textureSampling 2\n                -textureDisplay \"modulate\" \n                -textureMaxSize 8192\n                -fogging 0\n                -fogSource \"fragment\" \n                -fogMode \"linear\" \n                -fogStart 0\n                -fogEnd 100\n                -fogDensity 0.1\n                -fogColor 0.5 0.5 0.5 1 \n                -depthOfFieldPreview 1\n                -maxConstantTransparency 1\n"
		+ "                -rendererName \"vp2Renderer\" \n                -objectFilterShowInHUD 1\n                -isFiltered 0\n                -colorResolution 256 256 \n                -bumpResolution 512 512 \n                -textureCompression 0\n                -transparencyAlgorithm \"frontAndBackCull\" \n                -transpInShadows 0\n                -cullingOverride \"none\" \n                -lowQualityLighting 0\n                -maximumNumHardwareLights 1\n                -occlusionCulling 0\n                -shadingModel 0\n                -useBaseRenderer 0\n                -useReducedRenderer 0\n                -smallObjectCulling 0\n                -smallObjectThreshold -1 \n                -interactiveDisableShadows 0\n                -interactiveBackFaceCull 0\n                -sortTransparent 1\n                -nurbsCurves 1\n                -nurbsSurfaces 1\n                -polymeshes 1\n                -subdivSurfaces 1\n                -planes 1\n                -lights 1\n                -cameras 1\n                -controlVertices 1\n"
		+ "                -hulls 1\n                -grid 1\n                -imagePlane 1\n                -joints 1\n                -ikHandles 1\n                -deformers 1\n                -dynamics 1\n                -particleInstancers 1\n                -fluids 1\n                -hairSystems 1\n                -follicles 1\n                -nCloths 1\n                -nParticles 1\n                -nRigids 1\n                -dynamicConstraints 1\n                -locators 1\n                -manipulators 1\n                -pluginShapes 1\n                -dimensions 1\n                -handles 1\n                -pivots 1\n                -textures 1\n                -strokes 1\n                -motionTrails 1\n                -clipGhosts 1\n                -greasePencils 1\n                -shadows 0\n                -captureSequenceNumber -1\n                -width 1\n                -height 1\n                -sceneRenderFilter 0\n                $editorName;\n            modelEditor -e -viewSelected 0 $editorName;\n            modelEditor -e \n"
		+ "                -pluginObjects \"gpuCacheDisplayFilter\" 1 \n                $editorName;\n\t\t}\n\t} else {\n\t\t$label = `panel -q -label $panelName`;\n\t\tmodelPanel -edit -l (localizedPanelLabel(\"Top View\")) -mbv $menusOkayInPanels  $panelName;\n\t\t$editorName = $panelName;\n        modelEditor -e \n            -camera \"top\" \n            -useInteractiveMode 0\n            -displayLights \"default\" \n            -displayAppearance \"smoothShaded\" \n            -activeOnly 0\n            -ignorePanZoom 0\n            -wireframeOnShaded 0\n            -headsUpDisplay 1\n            -holdOuts 1\n            -selectionHiliteDisplay 1\n            -useDefaultMaterial 0\n            -bufferMode \"double\" \n            -twoSidedLighting 0\n            -backfaceCulling 0\n            -xray 0\n            -jointXray 0\n            -activeComponentsXray 0\n            -displayTextures 0\n            -smoothWireframe 0\n            -lineWidth 1\n            -textureAnisotropic 0\n            -textureHilight 1\n            -textureSampling 2\n            -textureDisplay \"modulate\" \n"
		+ "            -textureMaxSize 8192\n            -fogging 0\n            -fogSource \"fragment\" \n            -fogMode \"linear\" \n            -fogStart 0\n            -fogEnd 100\n            -fogDensity 0.1\n            -fogColor 0.5 0.5 0.5 1 \n            -depthOfFieldPreview 1\n            -maxConstantTransparency 1\n            -rendererName \"vp2Renderer\" \n            -objectFilterShowInHUD 1\n            -isFiltered 0\n            -colorResolution 256 256 \n            -bumpResolution 512 512 \n            -textureCompression 0\n            -transparencyAlgorithm \"frontAndBackCull\" \n            -transpInShadows 0\n            -cullingOverride \"none\" \n            -lowQualityLighting 0\n            -maximumNumHardwareLights 1\n            -occlusionCulling 0\n            -shadingModel 0\n            -useBaseRenderer 0\n            -useReducedRenderer 0\n            -smallObjectCulling 0\n            -smallObjectThreshold -1 \n            -interactiveDisableShadows 0\n            -interactiveBackFaceCull 0\n            -sortTransparent 1\n"
		+ "            -nurbsCurves 1\n            -nurbsSurfaces 1\n            -polymeshes 1\n            -subdivSurfaces 1\n            -planes 1\n            -lights 1\n            -cameras 1\n            -controlVertices 1\n            -hulls 1\n            -grid 1\n            -imagePlane 1\n            -joints 1\n            -ikHandles 1\n            -deformers 1\n            -dynamics 1\n            -particleInstancers 1\n            -fluids 1\n            -hairSystems 1\n            -follicles 1\n            -nCloths 1\n            -nParticles 1\n            -nRigids 1\n            -dynamicConstraints 1\n            -locators 1\n            -manipulators 1\n            -pluginShapes 1\n            -dimensions 1\n            -handles 1\n            -pivots 1\n            -textures 1\n            -strokes 1\n            -motionTrails 1\n            -clipGhosts 1\n            -greasePencils 1\n            -shadows 0\n            -captureSequenceNumber -1\n            -width 1\n            -height 1\n            -sceneRenderFilter 0\n            $editorName;\n"
		+ "        modelEditor -e -viewSelected 0 $editorName;\n        modelEditor -e \n            -pluginObjects \"gpuCacheDisplayFilter\" 1 \n            $editorName;\n\t\tif (!$useSceneConfig) {\n\t\t\tpanel -e -l $label $panelName;\n\t\t}\n\t}\n\n\n\t$panelName = `sceneUIReplacement -getNextPanel \"modelPanel\" (localizedPanelLabel(\"Side View\")) `;\n\tif (\"\" == $panelName) {\n\t\tif ($useSceneConfig) {\n\t\t\t$panelName = `modelPanel -unParent -l (localizedPanelLabel(\"Side View\")) -mbv $menusOkayInPanels `;\n\t\t\t$editorName = $panelName;\n            modelEditor -e \n                -camera \"side\" \n                -useInteractiveMode 0\n                -displayLights \"default\" \n                -displayAppearance \"smoothShaded\" \n                -activeOnly 0\n                -ignorePanZoom 0\n                -wireframeOnShaded 0\n                -headsUpDisplay 1\n                -holdOuts 1\n                -selectionHiliteDisplay 1\n                -useDefaultMaterial 0\n                -bufferMode \"double\" \n                -twoSidedLighting 0\n                -backfaceCulling 0\n"
		+ "                -xray 0\n                -jointXray 0\n                -activeComponentsXray 0\n                -displayTextures 0\n                -smoothWireframe 0\n                -lineWidth 1\n                -textureAnisotropic 0\n                -textureHilight 1\n                -textureSampling 2\n                -textureDisplay \"modulate\" \n                -textureMaxSize 8192\n                -fogging 0\n                -fogSource \"fragment\" \n                -fogMode \"linear\" \n                -fogStart 0\n                -fogEnd 100\n                -fogDensity 0.1\n                -fogColor 0.5 0.5 0.5 1 \n                -depthOfFieldPreview 1\n                -maxConstantTransparency 1\n                -rendererName \"vp2Renderer\" \n                -objectFilterShowInHUD 1\n                -isFiltered 0\n                -colorResolution 256 256 \n                -bumpResolution 512 512 \n                -textureCompression 0\n                -transparencyAlgorithm \"frontAndBackCull\" \n                -transpInShadows 0\n                -cullingOverride \"none\" \n"
		+ "                -lowQualityLighting 0\n                -maximumNumHardwareLights 1\n                -occlusionCulling 0\n                -shadingModel 0\n                -useBaseRenderer 0\n                -useReducedRenderer 0\n                -smallObjectCulling 0\n                -smallObjectThreshold -1 \n                -interactiveDisableShadows 0\n                -interactiveBackFaceCull 0\n                -sortTransparent 1\n                -nurbsCurves 1\n                -nurbsSurfaces 1\n                -polymeshes 1\n                -subdivSurfaces 1\n                -planes 1\n                -lights 1\n                -cameras 1\n                -controlVertices 1\n                -hulls 1\n                -grid 1\n                -imagePlane 1\n                -joints 1\n                -ikHandles 1\n                -deformers 1\n                -dynamics 1\n                -particleInstancers 1\n                -fluids 1\n                -hairSystems 1\n                -follicles 1\n                -nCloths 1\n                -nParticles 1\n"
		+ "                -nRigids 1\n                -dynamicConstraints 1\n                -locators 1\n                -manipulators 1\n                -pluginShapes 1\n                -dimensions 1\n                -handles 1\n                -pivots 1\n                -textures 1\n                -strokes 1\n                -motionTrails 1\n                -clipGhosts 1\n                -greasePencils 1\n                -shadows 0\n                -captureSequenceNumber -1\n                -width 1\n                -height 1\n                -sceneRenderFilter 0\n                $editorName;\n            modelEditor -e -viewSelected 0 $editorName;\n            modelEditor -e \n                -pluginObjects \"gpuCacheDisplayFilter\" 1 \n                $editorName;\n\t\t}\n\t} else {\n\t\t$label = `panel -q -label $panelName`;\n\t\tmodelPanel -edit -l (localizedPanelLabel(\"Side View\")) -mbv $menusOkayInPanels  $panelName;\n\t\t$editorName = $panelName;\n        modelEditor -e \n            -camera \"side\" \n            -useInteractiveMode 0\n            -displayLights \"default\" \n"
		+ "            -displayAppearance \"smoothShaded\" \n            -activeOnly 0\n            -ignorePanZoom 0\n            -wireframeOnShaded 0\n            -headsUpDisplay 1\n            -holdOuts 1\n            -selectionHiliteDisplay 1\n            -useDefaultMaterial 0\n            -bufferMode \"double\" \n            -twoSidedLighting 0\n            -backfaceCulling 0\n            -xray 0\n            -jointXray 0\n            -activeComponentsXray 0\n            -displayTextures 0\n            -smoothWireframe 0\n            -lineWidth 1\n            -textureAnisotropic 0\n            -textureHilight 1\n            -textureSampling 2\n            -textureDisplay \"modulate\" \n            -textureMaxSize 8192\n            -fogging 0\n            -fogSource \"fragment\" \n            -fogMode \"linear\" \n            -fogStart 0\n            -fogEnd 100\n            -fogDensity 0.1\n            -fogColor 0.5 0.5 0.5 1 \n            -depthOfFieldPreview 1\n            -maxConstantTransparency 1\n            -rendererName \"vp2Renderer\" \n            -objectFilterShowInHUD 1\n"
		+ "            -isFiltered 0\n            -colorResolution 256 256 \n            -bumpResolution 512 512 \n            -textureCompression 0\n            -transparencyAlgorithm \"frontAndBackCull\" \n            -transpInShadows 0\n            -cullingOverride \"none\" \n            -lowQualityLighting 0\n            -maximumNumHardwareLights 1\n            -occlusionCulling 0\n            -shadingModel 0\n            -useBaseRenderer 0\n            -useReducedRenderer 0\n            -smallObjectCulling 0\n            -smallObjectThreshold -1 \n            -interactiveDisableShadows 0\n            -interactiveBackFaceCull 0\n            -sortTransparent 1\n            -nurbsCurves 1\n            -nurbsSurfaces 1\n            -polymeshes 1\n            -subdivSurfaces 1\n            -planes 1\n            -lights 1\n            -cameras 1\n            -controlVertices 1\n            -hulls 1\n            -grid 1\n            -imagePlane 1\n            -joints 1\n            -ikHandles 1\n            -deformers 1\n            -dynamics 1\n            -particleInstancers 1\n"
		+ "            -fluids 1\n            -hairSystems 1\n            -follicles 1\n            -nCloths 1\n            -nParticles 1\n            -nRigids 1\n            -dynamicConstraints 1\n            -locators 1\n            -manipulators 1\n            -pluginShapes 1\n            -dimensions 1\n            -handles 1\n            -pivots 1\n            -textures 1\n            -strokes 1\n            -motionTrails 1\n            -clipGhosts 1\n            -greasePencils 1\n            -shadows 0\n            -captureSequenceNumber -1\n            -width 1\n            -height 1\n            -sceneRenderFilter 0\n            $editorName;\n        modelEditor -e -viewSelected 0 $editorName;\n        modelEditor -e \n            -pluginObjects \"gpuCacheDisplayFilter\" 1 \n            $editorName;\n\t\tif (!$useSceneConfig) {\n\t\t\tpanel -e -l $label $panelName;\n\t\t}\n\t}\n\n\n\t$panelName = `sceneUIReplacement -getNextPanel \"modelPanel\" (localizedPanelLabel(\"Front View\")) `;\n\tif (\"\" == $panelName) {\n\t\tif ($useSceneConfig) {\n\t\t\t$panelName = `modelPanel -unParent -l (localizedPanelLabel(\"Front View\")) -mbv $menusOkayInPanels `;\n"
		+ "\t\t\t$editorName = $panelName;\n            modelEditor -e \n                -camera \"front\" \n                -useInteractiveMode 0\n                -displayLights \"default\" \n                -displayAppearance \"smoothShaded\" \n                -activeOnly 0\n                -ignorePanZoom 0\n                -wireframeOnShaded 0\n                -headsUpDisplay 1\n                -holdOuts 1\n                -selectionHiliteDisplay 1\n                -useDefaultMaterial 0\n                -bufferMode \"double\" \n                -twoSidedLighting 0\n                -backfaceCulling 0\n                -xray 0\n                -jointXray 0\n                -activeComponentsXray 0\n                -displayTextures 0\n                -smoothWireframe 0\n                -lineWidth 1\n                -textureAnisotropic 0\n                -textureHilight 1\n                -textureSampling 2\n                -textureDisplay \"modulate\" \n                -textureMaxSize 8192\n                -fogging 0\n                -fogSource \"fragment\" \n                -fogMode \"linear\" \n"
		+ "                -fogStart 0\n                -fogEnd 100\n                -fogDensity 0.1\n                -fogColor 0.5 0.5 0.5 1 \n                -depthOfFieldPreview 1\n                -maxConstantTransparency 1\n                -rendererName \"vp2Renderer\" \n                -objectFilterShowInHUD 1\n                -isFiltered 0\n                -colorResolution 256 256 \n                -bumpResolution 512 512 \n                -textureCompression 0\n                -transparencyAlgorithm \"frontAndBackCull\" \n                -transpInShadows 0\n                -cullingOverride \"none\" \n                -lowQualityLighting 0\n                -maximumNumHardwareLights 1\n                -occlusionCulling 0\n                -shadingModel 0\n                -useBaseRenderer 0\n                -useReducedRenderer 0\n                -smallObjectCulling 0\n                -smallObjectThreshold -1 \n                -interactiveDisableShadows 0\n                -interactiveBackFaceCull 0\n                -sortTransparent 1\n                -nurbsCurves 1\n"
		+ "                -nurbsSurfaces 1\n                -polymeshes 1\n                -subdivSurfaces 1\n                -planes 1\n                -lights 1\n                -cameras 1\n                -controlVertices 1\n                -hulls 1\n                -grid 1\n                -imagePlane 1\n                -joints 1\n                -ikHandles 1\n                -deformers 1\n                -dynamics 1\n                -particleInstancers 1\n                -fluids 1\n                -hairSystems 1\n                -follicles 1\n                -nCloths 1\n                -nParticles 1\n                -nRigids 1\n                -dynamicConstraints 1\n                -locators 1\n                -manipulators 1\n                -pluginShapes 1\n                -dimensions 1\n                -handles 1\n                -pivots 1\n                -textures 1\n                -strokes 1\n                -motionTrails 1\n                -clipGhosts 1\n                -greasePencils 1\n                -shadows 0\n                -captureSequenceNumber -1\n"
		+ "                -width 1\n                -height 1\n                -sceneRenderFilter 0\n                $editorName;\n            modelEditor -e -viewSelected 0 $editorName;\n            modelEditor -e \n                -pluginObjects \"gpuCacheDisplayFilter\" 1 \n                $editorName;\n\t\t}\n\t} else {\n\t\t$label = `panel -q -label $panelName`;\n\t\tmodelPanel -edit -l (localizedPanelLabel(\"Front View\")) -mbv $menusOkayInPanels  $panelName;\n\t\t$editorName = $panelName;\n        modelEditor -e \n            -camera \"front\" \n            -useInteractiveMode 0\n            -displayLights \"default\" \n            -displayAppearance \"smoothShaded\" \n            -activeOnly 0\n            -ignorePanZoom 0\n            -wireframeOnShaded 0\n            -headsUpDisplay 1\n            -holdOuts 1\n            -selectionHiliteDisplay 1\n            -useDefaultMaterial 0\n            -bufferMode \"double\" \n            -twoSidedLighting 0\n            -backfaceCulling 0\n            -xray 0\n            -jointXray 0\n            -activeComponentsXray 0\n"
		+ "            -displayTextures 0\n            -smoothWireframe 0\n            -lineWidth 1\n            -textureAnisotropic 0\n            -textureHilight 1\n            -textureSampling 2\n            -textureDisplay \"modulate\" \n            -textureMaxSize 8192\n            -fogging 0\n            -fogSource \"fragment\" \n            -fogMode \"linear\" \n            -fogStart 0\n            -fogEnd 100\n            -fogDensity 0.1\n            -fogColor 0.5 0.5 0.5 1 \n            -depthOfFieldPreview 1\n            -maxConstantTransparency 1\n            -rendererName \"vp2Renderer\" \n            -objectFilterShowInHUD 1\n            -isFiltered 0\n            -colorResolution 256 256 \n            -bumpResolution 512 512 \n            -textureCompression 0\n            -transparencyAlgorithm \"frontAndBackCull\" \n            -transpInShadows 0\n            -cullingOverride \"none\" \n            -lowQualityLighting 0\n            -maximumNumHardwareLights 1\n            -occlusionCulling 0\n            -shadingModel 0\n            -useBaseRenderer 0\n"
		+ "            -useReducedRenderer 0\n            -smallObjectCulling 0\n            -smallObjectThreshold -1 \n            -interactiveDisableShadows 0\n            -interactiveBackFaceCull 0\n            -sortTransparent 1\n            -nurbsCurves 1\n            -nurbsSurfaces 1\n            -polymeshes 1\n            -subdivSurfaces 1\n            -planes 1\n            -lights 1\n            -cameras 1\n            -controlVertices 1\n            -hulls 1\n            -grid 1\n            -imagePlane 1\n            -joints 1\n            -ikHandles 1\n            -deformers 1\n            -dynamics 1\n            -particleInstancers 1\n            -fluids 1\n            -hairSystems 1\n            -follicles 1\n            -nCloths 1\n            -nParticles 1\n            -nRigids 1\n            -dynamicConstraints 1\n            -locators 1\n            -manipulators 1\n            -pluginShapes 1\n            -dimensions 1\n            -handles 1\n            -pivots 1\n            -textures 1\n            -strokes 1\n            -motionTrails 1\n"
		+ "            -clipGhosts 1\n            -greasePencils 1\n            -shadows 0\n            -captureSequenceNumber -1\n            -width 1\n            -height 1\n            -sceneRenderFilter 0\n            $editorName;\n        modelEditor -e -viewSelected 0 $editorName;\n        modelEditor -e \n            -pluginObjects \"gpuCacheDisplayFilter\" 1 \n            $editorName;\n\t\tif (!$useSceneConfig) {\n\t\t\tpanel -e -l $label $panelName;\n\t\t}\n\t}\n\n\n\t$panelName = `sceneUIReplacement -getNextPanel \"modelPanel\" (localizedPanelLabel(\"Persp View\")) `;\n\tif (\"\" == $panelName) {\n\t\tif ($useSceneConfig) {\n\t\t\t$panelName = `modelPanel -unParent -l (localizedPanelLabel(\"Persp View\")) -mbv $menusOkayInPanels `;\n\t\t\t$editorName = $panelName;\n            modelEditor -e \n                -camera \"persp\" \n                -useInteractiveMode 0\n                -displayLights \"default\" \n                -displayAppearance \"smoothShaded\" \n                -activeOnly 0\n                -ignorePanZoom 0\n                -wireframeOnShaded 0\n                -headsUpDisplay 1\n"
		+ "                -holdOuts 1\n                -selectionHiliteDisplay 1\n                -useDefaultMaterial 0\n                -bufferMode \"double\" \n                -twoSidedLighting 0\n                -backfaceCulling 0\n                -xray 0\n                -jointXray 0\n                -activeComponentsXray 0\n                -displayTextures 0\n                -smoothWireframe 0\n                -lineWidth 1\n                -textureAnisotropic 0\n                -textureHilight 1\n                -textureSampling 2\n                -textureDisplay \"modulate\" \n                -textureMaxSize 8192\n                -fogging 0\n                -fogSource \"fragment\" \n                -fogMode \"linear\" \n                -fogStart 0\n                -fogEnd 100\n                -fogDensity 0.1\n                -fogColor 0.5 0.5 0.5 1 \n                -depthOfFieldPreview 1\n                -maxConstantTransparency 1\n                -rendererName \"vp2Renderer\" \n                -objectFilterShowInHUD 1\n                -isFiltered 0\n"
		+ "                -colorResolution 256 256 \n                -bumpResolution 512 512 \n                -textureCompression 0\n                -transparencyAlgorithm \"frontAndBackCull\" \n                -transpInShadows 0\n                -cullingOverride \"none\" \n                -lowQualityLighting 0\n                -maximumNumHardwareLights 1\n                -occlusionCulling 0\n                -shadingModel 0\n                -useBaseRenderer 0\n                -useReducedRenderer 0\n                -smallObjectCulling 0\n                -smallObjectThreshold -1 \n                -interactiveDisableShadows 0\n                -interactiveBackFaceCull 0\n                -sortTransparent 1\n                -nurbsCurves 1\n                -nurbsSurfaces 1\n                -polymeshes 1\n                -subdivSurfaces 1\n                -planes 1\n                -lights 1\n                -cameras 1\n                -controlVertices 1\n                -hulls 1\n                -grid 1\n                -imagePlane 1\n                -joints 1\n"
		+ "                -ikHandles 1\n                -deformers 1\n                -dynamics 1\n                -particleInstancers 1\n                -fluids 1\n                -hairSystems 1\n                -follicles 1\n                -nCloths 1\n                -nParticles 1\n                -nRigids 1\n                -dynamicConstraints 1\n                -locators 1\n                -manipulators 1\n                -pluginShapes 1\n                -dimensions 1\n                -handles 1\n                -pivots 1\n                -textures 1\n                -strokes 1\n                -motionTrails 1\n                -clipGhosts 1\n                -greasePencils 1\n                -shadows 0\n                -captureSequenceNumber -1\n                -width 1735\n                -height 792\n                -sceneRenderFilter 0\n                $editorName;\n            modelEditor -e -viewSelected 0 $editorName;\n            modelEditor -e \n                -pluginObjects \"gpuCacheDisplayFilter\" 1 \n                $editorName;\n\t\t}\n\t} else {\n"
		+ "\t\t$label = `panel -q -label $panelName`;\n\t\tmodelPanel -edit -l (localizedPanelLabel(\"Persp View\")) -mbv $menusOkayInPanels  $panelName;\n\t\t$editorName = $panelName;\n        modelEditor -e \n            -camera \"persp\" \n            -useInteractiveMode 0\n            -displayLights \"default\" \n            -displayAppearance \"smoothShaded\" \n            -activeOnly 0\n            -ignorePanZoom 0\n            -wireframeOnShaded 0\n            -headsUpDisplay 1\n            -holdOuts 1\n            -selectionHiliteDisplay 1\n            -useDefaultMaterial 0\n            -bufferMode \"double\" \n            -twoSidedLighting 0\n            -backfaceCulling 0\n            -xray 0\n            -jointXray 0\n            -activeComponentsXray 0\n            -displayTextures 0\n            -smoothWireframe 0\n            -lineWidth 1\n            -textureAnisotropic 0\n            -textureHilight 1\n            -textureSampling 2\n            -textureDisplay \"modulate\" \n            -textureMaxSize 8192\n            -fogging 0\n            -fogSource \"fragment\" \n"
		+ "            -fogMode \"linear\" \n            -fogStart 0\n            -fogEnd 100\n            -fogDensity 0.1\n            -fogColor 0.5 0.5 0.5 1 \n            -depthOfFieldPreview 1\n            -maxConstantTransparency 1\n            -rendererName \"vp2Renderer\" \n            -objectFilterShowInHUD 1\n            -isFiltered 0\n            -colorResolution 256 256 \n            -bumpResolution 512 512 \n            -textureCompression 0\n            -transparencyAlgorithm \"frontAndBackCull\" \n            -transpInShadows 0\n            -cullingOverride \"none\" \n            -lowQualityLighting 0\n            -maximumNumHardwareLights 1\n            -occlusionCulling 0\n            -shadingModel 0\n            -useBaseRenderer 0\n            -useReducedRenderer 0\n            -smallObjectCulling 0\n            -smallObjectThreshold -1 \n            -interactiveDisableShadows 0\n            -interactiveBackFaceCull 0\n            -sortTransparent 1\n            -nurbsCurves 1\n            -nurbsSurfaces 1\n            -polymeshes 1\n            -subdivSurfaces 1\n"
		+ "            -planes 1\n            -lights 1\n            -cameras 1\n            -controlVertices 1\n            -hulls 1\n            -grid 1\n            -imagePlane 1\n            -joints 1\n            -ikHandles 1\n            -deformers 1\n            -dynamics 1\n            -particleInstancers 1\n            -fluids 1\n            -hairSystems 1\n            -follicles 1\n            -nCloths 1\n            -nParticles 1\n            -nRigids 1\n            -dynamicConstraints 1\n            -locators 1\n            -manipulators 1\n            -pluginShapes 1\n            -dimensions 1\n            -handles 1\n            -pivots 1\n            -textures 1\n            -strokes 1\n            -motionTrails 1\n            -clipGhosts 1\n            -greasePencils 1\n            -shadows 0\n            -captureSequenceNumber -1\n            -width 1735\n            -height 792\n            -sceneRenderFilter 0\n            $editorName;\n        modelEditor -e -viewSelected 0 $editorName;\n        modelEditor -e \n            -pluginObjects \"gpuCacheDisplayFilter\" 1 \n"
		+ "            $editorName;\n\t\tif (!$useSceneConfig) {\n\t\t\tpanel -e -l $label $panelName;\n\t\t}\n\t}\n\n\n\t$panelName = `sceneUIReplacement -getNextPanel \"outlinerPanel\" (localizedPanelLabel(\"Outliner\")) `;\n\tif (\"\" == $panelName) {\n\t\tif ($useSceneConfig) {\n\t\t\t$panelName = `outlinerPanel -unParent -l (localizedPanelLabel(\"Outliner\")) -mbv $menusOkayInPanels `;\n\t\t\t$editorName = $panelName;\n            outlinerEditor -e \n                -docTag \"isolOutln_fromSeln\" \n                -showShapes 0\n                -showReferenceNodes 0\n                -showReferenceMembers 1\n                -showAttributes 0\n                -showConnected 0\n                -showAnimCurvesOnly 0\n                -showMuteInfo 0\n                -organizeByLayer 1\n                -showAnimLayerWeight 1\n                -autoExpandLayers 1\n                -autoExpand 0\n                -showDagOnly 0\n                -showAssets 1\n                -showContainedOnly 1\n                -showPublishedAsConnected 0\n                -showContainerContents 1\n                -ignoreDagHierarchy 0\n"
		+ "                -expandConnections 0\n                -showUpstreamCurves 1\n                -showUnitlessCurves 1\n                -showCompounds 1\n                -showLeafs 1\n                -showNumericAttrsOnly 0\n                -highlightActive 1\n                -autoSelectNewObjects 0\n                -doNotSelectNewObjects 0\n                -dropIsParent 1\n                -transmitFilters 0\n                -setFilter \"defaultSetFilter\" \n                -showSetMembers 1\n                -allowMultiSelection 1\n                -alwaysToggleSelect 0\n                -directSelect 0\n                -displayMode \"DAG\" \n                -expandObjects 0\n                -setsIgnoreFilters 1\n                -containersIgnoreFilters 0\n                -editAttrName 0\n                -showAttrValues 0\n                -highlightSecondary 0\n                -showUVAttrsOnly 0\n                -showTextureNodesOnly 0\n                -attrAlphaOrder \"default\" \n                -animLayerFilterOptions \"allAffecting\" \n                -sortOrder \"none\" \n"
		+ "                -longNames 0\n                -niceNames 1\n                -showNamespace 1\n                -showPinIcons 0\n                -mapMotionTrails 0\n                -ignoreHiddenAttribute 0\n                -ignoreOutlinerColor 0\n                $editorName;\n\t\t}\n\t} else {\n\t\t$label = `panel -q -label $panelName`;\n\t\toutlinerPanel -edit -l (localizedPanelLabel(\"Outliner\")) -mbv $menusOkayInPanels  $panelName;\n\t\t$editorName = $panelName;\n        outlinerEditor -e \n            -docTag \"isolOutln_fromSeln\" \n            -showShapes 0\n            -showReferenceNodes 0\n            -showReferenceMembers 1\n            -showAttributes 0\n            -showConnected 0\n            -showAnimCurvesOnly 0\n            -showMuteInfo 0\n            -organizeByLayer 1\n            -showAnimLayerWeight 1\n            -autoExpandLayers 1\n            -autoExpand 0\n            -showDagOnly 0\n            -showAssets 1\n            -showContainedOnly 1\n            -showPublishedAsConnected 0\n            -showContainerContents 1\n            -ignoreDagHierarchy 0\n"
		+ "            -expandConnections 0\n            -showUpstreamCurves 1\n            -showUnitlessCurves 1\n            -showCompounds 1\n            -showLeafs 1\n            -showNumericAttrsOnly 0\n            -highlightActive 1\n            -autoSelectNewObjects 0\n            -doNotSelectNewObjects 0\n            -dropIsParent 1\n            -transmitFilters 0\n            -setFilter \"defaultSetFilter\" \n            -showSetMembers 1\n            -allowMultiSelection 1\n            -alwaysToggleSelect 0\n            -directSelect 0\n            -displayMode \"DAG\" \n            -expandObjects 0\n            -setsIgnoreFilters 1\n            -containersIgnoreFilters 0\n            -editAttrName 0\n            -showAttrValues 0\n            -highlightSecondary 0\n            -showUVAttrsOnly 0\n            -showTextureNodesOnly 0\n            -attrAlphaOrder \"default\" \n            -animLayerFilterOptions \"allAffecting\" \n            -sortOrder \"none\" \n            -longNames 0\n            -niceNames 1\n            -showNamespace 1\n            -showPinIcons 0\n"
		+ "            -mapMotionTrails 0\n            -ignoreHiddenAttribute 0\n            -ignoreOutlinerColor 0\n            $editorName;\n\t\tif (!$useSceneConfig) {\n\t\t\tpanel -e -l $label $panelName;\n\t\t}\n\t}\n\n\n\t$panelName = `sceneUIReplacement -getNextScriptedPanel \"graphEditor\" (localizedPanelLabel(\"Graph Editor\")) `;\n\tif (\"\" == $panelName) {\n\t\tif ($useSceneConfig) {\n\t\t\t$panelName = `scriptedPanel -unParent  -type \"graphEditor\" -l (localizedPanelLabel(\"Graph Editor\")) -mbv $menusOkayInPanels `;\n\n\t\t\t$editorName = ($panelName+\"OutlineEd\");\n            outlinerEditor -e \n                -showShapes 1\n                -showReferenceNodes 0\n                -showReferenceMembers 0\n                -showAttributes 1\n                -showConnected 1\n                -showAnimCurvesOnly 1\n                -showMuteInfo 0\n                -organizeByLayer 1\n                -showAnimLayerWeight 1\n                -autoExpandLayers 1\n                -autoExpand 1\n                -showDagOnly 0\n                -showAssets 1\n                -showContainedOnly 0\n"
		+ "                -showPublishedAsConnected 0\n                -showContainerContents 0\n                -ignoreDagHierarchy 0\n                -expandConnections 1\n                -showUpstreamCurves 1\n                -showUnitlessCurves 1\n                -showCompounds 0\n                -showLeafs 1\n                -showNumericAttrsOnly 1\n                -highlightActive 0\n                -autoSelectNewObjects 1\n                -doNotSelectNewObjects 0\n                -dropIsParent 1\n                -transmitFilters 1\n                -setFilter \"0\" \n                -showSetMembers 0\n                -allowMultiSelection 1\n                -alwaysToggleSelect 0\n                -directSelect 0\n                -displayMode \"DAG\" \n                -expandObjects 0\n                -setsIgnoreFilters 1\n                -containersIgnoreFilters 0\n                -editAttrName 0\n                -showAttrValues 0\n                -highlightSecondary 0\n                -showUVAttrsOnly 0\n                -showTextureNodesOnly 0\n                -attrAlphaOrder \"default\" \n"
		+ "                -animLayerFilterOptions \"allAffecting\" \n                -sortOrder \"none\" \n                -longNames 0\n                -niceNames 1\n                -showNamespace 1\n                -showPinIcons 1\n                -mapMotionTrails 1\n                -ignoreHiddenAttribute 0\n                -ignoreOutlinerColor 0\n                $editorName;\n\n\t\t\t$editorName = ($panelName+\"GraphEd\");\n            animCurveEditor -e \n                -displayKeys 1\n                -displayTangents 0\n                -displayActiveKeys 0\n                -displayActiveKeyTangents 1\n                -displayInfinities 0\n                -autoFit 0\n                -snapTime \"integer\" \n                -snapValue \"none\" \n                -showResults \"off\" \n                -showBufferCurves \"off\" \n                -smoothness \"fine\" \n                -resultSamples 1.041667\n                -resultScreenSamples 0\n                -resultUpdate \"delayed\" \n                -showUpstreamCurves 1\n                -stackedCurves 0\n                -stackedCurvesMin -1\n"
		+ "                -stackedCurvesMax 1\n                -stackedCurvesSpace 0.2\n                -displayNormalized 0\n                -preSelectionHighlight 0\n                -constrainDrag 0\n                -classicMode 1\n                $editorName;\n\t\t}\n\t} else {\n\t\t$label = `panel -q -label $panelName`;\n\t\tscriptedPanel -edit -l (localizedPanelLabel(\"Graph Editor\")) -mbv $menusOkayInPanels  $panelName;\n\n\t\t\t$editorName = ($panelName+\"OutlineEd\");\n            outlinerEditor -e \n                -showShapes 1\n                -showReferenceNodes 0\n                -showReferenceMembers 0\n                -showAttributes 1\n                -showConnected 1\n                -showAnimCurvesOnly 1\n                -showMuteInfo 0\n                -organizeByLayer 1\n                -showAnimLayerWeight 1\n                -autoExpandLayers 1\n                -autoExpand 1\n                -showDagOnly 0\n                -showAssets 1\n                -showContainedOnly 0\n                -showPublishedAsConnected 0\n                -showContainerContents 0\n"
		+ "                -ignoreDagHierarchy 0\n                -expandConnections 1\n                -showUpstreamCurves 1\n                -showUnitlessCurves 1\n                -showCompounds 0\n                -showLeafs 1\n                -showNumericAttrsOnly 1\n                -highlightActive 0\n                -autoSelectNewObjects 1\n                -doNotSelectNewObjects 0\n                -dropIsParent 1\n                -transmitFilters 1\n                -setFilter \"0\" \n                -showSetMembers 0\n                -allowMultiSelection 1\n                -alwaysToggleSelect 0\n                -directSelect 0\n                -displayMode \"DAG\" \n                -expandObjects 0\n                -setsIgnoreFilters 1\n                -containersIgnoreFilters 0\n                -editAttrName 0\n                -showAttrValues 0\n                -highlightSecondary 0\n                -showUVAttrsOnly 0\n                -showTextureNodesOnly 0\n                -attrAlphaOrder \"default\" \n                -animLayerFilterOptions \"allAffecting\" \n"
		+ "                -sortOrder \"none\" \n                -longNames 0\n                -niceNames 1\n                -showNamespace 1\n                -showPinIcons 1\n                -mapMotionTrails 1\n                -ignoreHiddenAttribute 0\n                -ignoreOutlinerColor 0\n                $editorName;\n\n\t\t\t$editorName = ($panelName+\"GraphEd\");\n            animCurveEditor -e \n                -displayKeys 1\n                -displayTangents 0\n                -displayActiveKeys 0\n                -displayActiveKeyTangents 1\n                -displayInfinities 0\n                -autoFit 0\n                -snapTime \"integer\" \n                -snapValue \"none\" \n                -showResults \"off\" \n                -showBufferCurves \"off\" \n                -smoothness \"fine\" \n                -resultSamples 1.041667\n                -resultScreenSamples 0\n                -resultUpdate \"delayed\" \n                -showUpstreamCurves 1\n                -stackedCurves 0\n                -stackedCurvesMin -1\n                -stackedCurvesMax 1\n"
		+ "                -stackedCurvesSpace 0.2\n                -displayNormalized 0\n                -preSelectionHighlight 0\n                -constrainDrag 0\n                -classicMode 1\n                $editorName;\n\t\tif (!$useSceneConfig) {\n\t\t\tpanel -e -l $label $panelName;\n\t\t}\n\t}\n\n\n\t$panelName = `sceneUIReplacement -getNextScriptedPanel \"dopeSheetPanel\" (localizedPanelLabel(\"Dope Sheet\")) `;\n\tif (\"\" == $panelName) {\n\t\tif ($useSceneConfig) {\n\t\t\t$panelName = `scriptedPanel -unParent  -type \"dopeSheetPanel\" -l (localizedPanelLabel(\"Dope Sheet\")) -mbv $menusOkayInPanels `;\n\n\t\t\t$editorName = ($panelName+\"OutlineEd\");\n            outlinerEditor -e \n                -showShapes 1\n                -showReferenceNodes 0\n                -showReferenceMembers 0\n                -showAttributes 1\n                -showConnected 1\n                -showAnimCurvesOnly 1\n                -showMuteInfo 0\n                -organizeByLayer 1\n                -showAnimLayerWeight 1\n                -autoExpandLayers 1\n                -autoExpand 0\n"
		+ "                -showDagOnly 0\n                -showAssets 1\n                -showContainedOnly 0\n                -showPublishedAsConnected 0\n                -showContainerContents 0\n                -ignoreDagHierarchy 0\n                -expandConnections 1\n                -showUpstreamCurves 1\n                -showUnitlessCurves 0\n                -showCompounds 1\n                -showLeafs 1\n                -showNumericAttrsOnly 1\n                -highlightActive 0\n                -autoSelectNewObjects 0\n                -doNotSelectNewObjects 1\n                -dropIsParent 1\n                -transmitFilters 0\n                -setFilter \"0\" \n                -showSetMembers 0\n                -allowMultiSelection 1\n                -alwaysToggleSelect 0\n                -directSelect 0\n                -displayMode \"DAG\" \n                -expandObjects 0\n                -setsIgnoreFilters 1\n                -containersIgnoreFilters 0\n                -editAttrName 0\n                -showAttrValues 0\n                -highlightSecondary 0\n"
		+ "                -showUVAttrsOnly 0\n                -showTextureNodesOnly 0\n                -attrAlphaOrder \"default\" \n                -animLayerFilterOptions \"allAffecting\" \n                -sortOrder \"none\" \n                -longNames 0\n                -niceNames 1\n                -showNamespace 1\n                -showPinIcons 0\n                -mapMotionTrails 1\n                -ignoreHiddenAttribute 0\n                -ignoreOutlinerColor 0\n                $editorName;\n\n\t\t\t$editorName = ($panelName+\"DopeSheetEd\");\n            dopeSheetEditor -e \n                -displayKeys 1\n                -displayTangents 0\n                -displayActiveKeys 0\n                -displayActiveKeyTangents 0\n                -displayInfinities 0\n                -autoFit 0\n                -snapTime \"integer\" \n                -snapValue \"none\" \n                -outliner \"dopeSheetPanel1OutlineEd\" \n                -showSummary 1\n                -showScene 0\n                -hierarchyBelow 0\n                -showTicks 1\n                -selectionWindow 0 0 0 0 \n"
		+ "                $editorName;\n\t\t}\n\t} else {\n\t\t$label = `panel -q -label $panelName`;\n\t\tscriptedPanel -edit -l (localizedPanelLabel(\"Dope Sheet\")) -mbv $menusOkayInPanels  $panelName;\n\n\t\t\t$editorName = ($panelName+\"OutlineEd\");\n            outlinerEditor -e \n                -showShapes 1\n                -showReferenceNodes 0\n                -showReferenceMembers 0\n                -showAttributes 1\n                -showConnected 1\n                -showAnimCurvesOnly 1\n                -showMuteInfo 0\n                -organizeByLayer 1\n                -showAnimLayerWeight 1\n                -autoExpandLayers 1\n                -autoExpand 0\n                -showDagOnly 0\n                -showAssets 1\n                -showContainedOnly 0\n                -showPublishedAsConnected 0\n                -showContainerContents 0\n                -ignoreDagHierarchy 0\n                -expandConnections 1\n                -showUpstreamCurves 1\n                -showUnitlessCurves 0\n                -showCompounds 1\n                -showLeafs 1\n"
		+ "                -showNumericAttrsOnly 1\n                -highlightActive 0\n                -autoSelectNewObjects 0\n                -doNotSelectNewObjects 1\n                -dropIsParent 1\n                -transmitFilters 0\n                -setFilter \"0\" \n                -showSetMembers 0\n                -allowMultiSelection 1\n                -alwaysToggleSelect 0\n                -directSelect 0\n                -displayMode \"DAG\" \n                -expandObjects 0\n                -setsIgnoreFilters 1\n                -containersIgnoreFilters 0\n                -editAttrName 0\n                -showAttrValues 0\n                -highlightSecondary 0\n                -showUVAttrsOnly 0\n                -showTextureNodesOnly 0\n                -attrAlphaOrder \"default\" \n                -animLayerFilterOptions \"allAffecting\" \n                -sortOrder \"none\" \n                -longNames 0\n                -niceNames 1\n                -showNamespace 1\n                -showPinIcons 0\n                -mapMotionTrails 1\n                -ignoreHiddenAttribute 0\n"
		+ "                -ignoreOutlinerColor 0\n                $editorName;\n\n\t\t\t$editorName = ($panelName+\"DopeSheetEd\");\n            dopeSheetEditor -e \n                -displayKeys 1\n                -displayTangents 0\n                -displayActiveKeys 0\n                -displayActiveKeyTangents 0\n                -displayInfinities 0\n                -autoFit 0\n                -snapTime \"integer\" \n                -snapValue \"none\" \n                -outliner \"dopeSheetPanel1OutlineEd\" \n                -showSummary 1\n                -showScene 0\n                -hierarchyBelow 0\n                -showTicks 1\n                -selectionWindow 0 0 0 0 \n                $editorName;\n\t\tif (!$useSceneConfig) {\n\t\t\tpanel -e -l $label $panelName;\n\t\t}\n\t}\n\n\n\t$panelName = `sceneUIReplacement -getNextScriptedPanel \"clipEditorPanel\" (localizedPanelLabel(\"Trax Editor\")) `;\n\tif (\"\" == $panelName) {\n\t\tif ($useSceneConfig) {\n\t\t\t$panelName = `scriptedPanel -unParent  -type \"clipEditorPanel\" -l (localizedPanelLabel(\"Trax Editor\")) -mbv $menusOkayInPanels `;\n"
		+ "\t\t\t$editorName = clipEditorNameFromPanel($panelName);\n            clipEditor -e \n                -displayKeys 0\n                -displayTangents 0\n                -displayActiveKeys 0\n                -displayActiveKeyTangents 0\n                -displayInfinities 0\n                -autoFit 0\n                -snapTime \"none\" \n                -snapValue \"none\" \n                -manageSequencer 0 \n                $editorName;\n\t\t}\n\t} else {\n\t\t$label = `panel -q -label $panelName`;\n\t\tscriptedPanel -edit -l (localizedPanelLabel(\"Trax Editor\")) -mbv $menusOkayInPanels  $panelName;\n\n\t\t\t$editorName = clipEditorNameFromPanel($panelName);\n            clipEditor -e \n                -displayKeys 0\n                -displayTangents 0\n                -displayActiveKeys 0\n                -displayActiveKeyTangents 0\n                -displayInfinities 0\n                -autoFit 0\n                -snapTime \"none\" \n                -snapValue \"none\" \n                -manageSequencer 0 \n                $editorName;\n\t\tif (!$useSceneConfig) {\n"
		+ "\t\t\tpanel -e -l $label $panelName;\n\t\t}\n\t}\n\n\n\t$panelName = `sceneUIReplacement -getNextScriptedPanel \"sequenceEditorPanel\" (localizedPanelLabel(\"Camera Sequencer\")) `;\n\tif (\"\" == $panelName) {\n\t\tif ($useSceneConfig) {\n\t\t\t$panelName = `scriptedPanel -unParent  -type \"sequenceEditorPanel\" -l (localizedPanelLabel(\"Camera Sequencer\")) -mbv $menusOkayInPanels `;\n\n\t\t\t$editorName = sequenceEditorNameFromPanel($panelName);\n            clipEditor -e \n                -displayKeys 0\n                -displayTangents 0\n                -displayActiveKeys 0\n                -displayActiveKeyTangents 0\n                -displayInfinities 0\n                -autoFit 0\n                -snapTime \"none\" \n                -snapValue \"none\" \n                -manageSequencer 1 \n                $editorName;\n\t\t}\n\t} else {\n\t\t$label = `panel -q -label $panelName`;\n\t\tscriptedPanel -edit -l (localizedPanelLabel(\"Camera Sequencer\")) -mbv $menusOkayInPanels  $panelName;\n\n\t\t\t$editorName = sequenceEditorNameFromPanel($panelName);\n            clipEditor -e \n"
		+ "                -displayKeys 0\n                -displayTangents 0\n                -displayActiveKeys 0\n                -displayActiveKeyTangents 0\n                -displayInfinities 0\n                -autoFit 0\n                -snapTime \"none\" \n                -snapValue \"none\" \n                -manageSequencer 1 \n                $editorName;\n\t\tif (!$useSceneConfig) {\n\t\t\tpanel -e -l $label $panelName;\n\t\t}\n\t}\n\n\n\t$panelName = `sceneUIReplacement -getNextScriptedPanel \"hyperGraphPanel\" (localizedPanelLabel(\"Hypergraph Hierarchy\")) `;\n\tif (\"\" == $panelName) {\n\t\tif ($useSceneConfig) {\n\t\t\t$panelName = `scriptedPanel -unParent  -type \"hyperGraphPanel\" -l (localizedPanelLabel(\"Hypergraph Hierarchy\")) -mbv $menusOkayInPanels `;\n\n\t\t\t$editorName = ($panelName+\"HyperGraphEd\");\n            hyperGraph -e \n                -graphLayoutStyle \"hierarchicalLayout\" \n                -orientation \"horiz\" \n                -mergeConnections 0\n                -zoom 1\n                -animateTransition 0\n                -showRelationships 1\n"
		+ "                -showShapes 0\n                -showDeformers 0\n                -showExpressions 0\n                -showConstraints 0\n                -showConnectionFromSelected 0\n                -showConnectionToSelected 0\n                -showConstraintLabels 0\n                -showUnderworld 0\n                -showInvisible 0\n                -transitionFrames 1\n                -opaqueContainers 0\n                -freeform 0\n                -imagePosition 0 0 \n                -imageScale 1\n                -imageEnabled 0\n                -graphType \"DAG\" \n                -heatMapDisplay 0\n                -updateSelection 1\n                -updateNodeAdded 1\n                -useDrawOverrideColor 0\n                -limitGraphTraversal -1\n                -range 0 0 \n                -iconSize \"smallIcons\" \n                -showCachedConnections 0\n                $editorName;\n\t\t}\n\t} else {\n\t\t$label = `panel -q -label $panelName`;\n\t\tscriptedPanel -edit -l (localizedPanelLabel(\"Hypergraph Hierarchy\")) -mbv $menusOkayInPanels  $panelName;\n"
		+ "\t\t\t$editorName = ($panelName+\"HyperGraphEd\");\n            hyperGraph -e \n                -graphLayoutStyle \"hierarchicalLayout\" \n                -orientation \"horiz\" \n                -mergeConnections 0\n                -zoom 1\n                -animateTransition 0\n                -showRelationships 1\n                -showShapes 0\n                -showDeformers 0\n                -showExpressions 0\n                -showConstraints 0\n                -showConnectionFromSelected 0\n                -showConnectionToSelected 0\n                -showConstraintLabels 0\n                -showUnderworld 0\n                -showInvisible 0\n                -transitionFrames 1\n                -opaqueContainers 0\n                -freeform 0\n                -imagePosition 0 0 \n                -imageScale 1\n                -imageEnabled 0\n                -graphType \"DAG\" \n                -heatMapDisplay 0\n                -updateSelection 1\n                -updateNodeAdded 1\n                -useDrawOverrideColor 0\n                -limitGraphTraversal -1\n"
		+ "                -range 0 0 \n                -iconSize \"smallIcons\" \n                -showCachedConnections 0\n                $editorName;\n\t\tif (!$useSceneConfig) {\n\t\t\tpanel -e -l $label $panelName;\n\t\t}\n\t}\n\n\n\t$panelName = `sceneUIReplacement -getNextScriptedPanel \"visorPanel\" (localizedPanelLabel(\"Visor\")) `;\n\tif (\"\" == $panelName) {\n\t\tif ($useSceneConfig) {\n\t\t\t$panelName = `scriptedPanel -unParent  -type \"visorPanel\" -l (localizedPanelLabel(\"Visor\")) -mbv $menusOkayInPanels `;\n\t\t}\n\t} else {\n\t\t$label = `panel -q -label $panelName`;\n\t\tscriptedPanel -edit -l (localizedPanelLabel(\"Visor\")) -mbv $menusOkayInPanels  $panelName;\n\t\tif (!$useSceneConfig) {\n\t\t\tpanel -e -l $label $panelName;\n\t\t}\n\t}\n\n\n\t$panelName = `sceneUIReplacement -getNextScriptedPanel \"createNodePanel\" (localizedPanelLabel(\"Create Node\")) `;\n\tif (\"\" == $panelName) {\n\t\tif ($useSceneConfig) {\n\t\t\t$panelName = `scriptedPanel -unParent  -type \"createNodePanel\" -l (localizedPanelLabel(\"Create Node\")) -mbv $menusOkayInPanels `;\n\t\t}\n\t} else {\n\t\t$label = `panel -q -label $panelName`;\n"
		+ "\t\tscriptedPanel -edit -l (localizedPanelLabel(\"Create Node\")) -mbv $menusOkayInPanels  $panelName;\n\t\tif (!$useSceneConfig) {\n\t\t\tpanel -e -l $label $panelName;\n\t\t}\n\t}\n\n\n\t$panelName = `sceneUIReplacement -getNextScriptedPanel \"polyTexturePlacementPanel\" (localizedPanelLabel(\"UV Editor\")) `;\n\tif (\"\" == $panelName) {\n\t\tif ($useSceneConfig) {\n\t\t\t$panelName = `scriptedPanel -unParent  -type \"polyTexturePlacementPanel\" -l (localizedPanelLabel(\"UV Editor\")) -mbv $menusOkayInPanels `;\n\t\t}\n\t} else {\n\t\t$label = `panel -q -label $panelName`;\n\t\tscriptedPanel -edit -l (localizedPanelLabel(\"UV Editor\")) -mbv $menusOkayInPanels  $panelName;\n\t\tif (!$useSceneConfig) {\n\t\t\tpanel -e -l $label $panelName;\n\t\t}\n\t}\n\n\n\t$panelName = `sceneUIReplacement -getNextScriptedPanel \"renderWindowPanel\" (localizedPanelLabel(\"Render View\")) `;\n\tif (\"\" == $panelName) {\n\t\tif ($useSceneConfig) {\n\t\t\t$panelName = `scriptedPanel -unParent  -type \"renderWindowPanel\" -l (localizedPanelLabel(\"Render View\")) -mbv $menusOkayInPanels `;\n\t\t}\n\t} else {\n\t\t$label = `panel -q -label $panelName`;\n"
		+ "\t\tscriptedPanel -edit -l (localizedPanelLabel(\"Render View\")) -mbv $menusOkayInPanels  $panelName;\n\t\tif (!$useSceneConfig) {\n\t\t\tpanel -e -l $label $panelName;\n\t\t}\n\t}\n\n\n\t$panelName = `sceneUIReplacement -getNextPanel \"blendShapePanel\" (localizedPanelLabel(\"Blend Shape\")) `;\n\tif (\"\" == $panelName) {\n\t\tif ($useSceneConfig) {\n\t\t\tblendShapePanel -unParent -l (localizedPanelLabel(\"Blend Shape\")) -mbv $menusOkayInPanels ;\n\t\t}\n\t} else {\n\t\t$label = `panel -q -label $panelName`;\n\t\tblendShapePanel -edit -l (localizedPanelLabel(\"Blend Shape\")) -mbv $menusOkayInPanels  $panelName;\n\t\tif (!$useSceneConfig) {\n\t\t\tpanel -e -l $label $panelName;\n\t\t}\n\t}\n\n\n\t$panelName = `sceneUIReplacement -getNextScriptedPanel \"dynRelEdPanel\" (localizedPanelLabel(\"Dynamic Relationships\")) `;\n\tif (\"\" == $panelName) {\n\t\tif ($useSceneConfig) {\n\t\t\t$panelName = `scriptedPanel -unParent  -type \"dynRelEdPanel\" -l (localizedPanelLabel(\"Dynamic Relationships\")) -mbv $menusOkayInPanels `;\n\t\t}\n\t} else {\n\t\t$label = `panel -q -label $panelName`;\n\t\tscriptedPanel -edit -l (localizedPanelLabel(\"Dynamic Relationships\")) -mbv $menusOkayInPanels  $panelName;\n"
		+ "\t\tif (!$useSceneConfig) {\n\t\t\tpanel -e -l $label $panelName;\n\t\t}\n\t}\n\n\n\t$panelName = `sceneUIReplacement -getNextScriptedPanel \"relationshipPanel\" (localizedPanelLabel(\"Relationship Editor\")) `;\n\tif (\"\" == $panelName) {\n\t\tif ($useSceneConfig) {\n\t\t\t$panelName = `scriptedPanel -unParent  -type \"relationshipPanel\" -l (localizedPanelLabel(\"Relationship Editor\")) -mbv $menusOkayInPanels `;\n\t\t}\n\t} else {\n\t\t$label = `panel -q -label $panelName`;\n\t\tscriptedPanel -edit -l (localizedPanelLabel(\"Relationship Editor\")) -mbv $menusOkayInPanels  $panelName;\n\t\tif (!$useSceneConfig) {\n\t\t\tpanel -e -l $label $panelName;\n\t\t}\n\t}\n\n\n\t$panelName = `sceneUIReplacement -getNextScriptedPanel \"referenceEditorPanel\" (localizedPanelLabel(\"Reference Editor\")) `;\n\tif (\"\" == $panelName) {\n\t\tif ($useSceneConfig) {\n\t\t\t$panelName = `scriptedPanel -unParent  -type \"referenceEditorPanel\" -l (localizedPanelLabel(\"Reference Editor\")) -mbv $menusOkayInPanels `;\n\t\t}\n\t} else {\n\t\t$label = `panel -q -label $panelName`;\n\t\tscriptedPanel -edit -l (localizedPanelLabel(\"Reference Editor\")) -mbv $menusOkayInPanels  $panelName;\n"
		+ "\t\tif (!$useSceneConfig) {\n\t\t\tpanel -e -l $label $panelName;\n\t\t}\n\t}\n\n\n\t$panelName = `sceneUIReplacement -getNextScriptedPanel \"componentEditorPanel\" (localizedPanelLabel(\"Component Editor\")) `;\n\tif (\"\" == $panelName) {\n\t\tif ($useSceneConfig) {\n\t\t\t$panelName = `scriptedPanel -unParent  -type \"componentEditorPanel\" -l (localizedPanelLabel(\"Component Editor\")) -mbv $menusOkayInPanels `;\n\t\t}\n\t} else {\n\t\t$label = `panel -q -label $panelName`;\n\t\tscriptedPanel -edit -l (localizedPanelLabel(\"Component Editor\")) -mbv $menusOkayInPanels  $panelName;\n\t\tif (!$useSceneConfig) {\n\t\t\tpanel -e -l $label $panelName;\n\t\t}\n\t}\n\n\n\t$panelName = `sceneUIReplacement -getNextScriptedPanel \"dynPaintScriptedPanelType\" (localizedPanelLabel(\"Paint Effects\")) `;\n\tif (\"\" == $panelName) {\n\t\tif ($useSceneConfig) {\n\t\t\t$panelName = `scriptedPanel -unParent  -type \"dynPaintScriptedPanelType\" -l (localizedPanelLabel(\"Paint Effects\")) -mbv $menusOkayInPanels `;\n\t\t}\n\t} else {\n\t\t$label = `panel -q -label $panelName`;\n\t\tscriptedPanel -edit -l (localizedPanelLabel(\"Paint Effects\")) -mbv $menusOkayInPanels  $panelName;\n"
		+ "\t\tif (!$useSceneConfig) {\n\t\t\tpanel -e -l $label $panelName;\n\t\t}\n\t}\n\n\n\t$panelName = `sceneUIReplacement -getNextScriptedPanel \"scriptEditorPanel\" (localizedPanelLabel(\"Script Editor\")) `;\n\tif (\"\" == $panelName) {\n\t\tif ($useSceneConfig) {\n\t\t\t$panelName = `scriptedPanel -unParent  -type \"scriptEditorPanel\" -l (localizedPanelLabel(\"Script Editor\")) -mbv $menusOkayInPanels `;\n\t\t}\n\t} else {\n\t\t$label = `panel -q -label $panelName`;\n\t\tscriptedPanel -edit -l (localizedPanelLabel(\"Script Editor\")) -mbv $menusOkayInPanels  $panelName;\n\t\tif (!$useSceneConfig) {\n\t\t\tpanel -e -l $label $panelName;\n\t\t}\n\t}\n\n\n\t$panelName = `sceneUIReplacement -getNextScriptedPanel \"profilerPanel\" (localizedPanelLabel(\"Profiler Tool\")) `;\n\tif (\"\" == $panelName) {\n\t\tif ($useSceneConfig) {\n\t\t\t$panelName = `scriptedPanel -unParent  -type \"profilerPanel\" -l (localizedPanelLabel(\"Profiler Tool\")) -mbv $menusOkayInPanels `;\n\t\t}\n\t} else {\n\t\t$label = `panel -q -label $panelName`;\n\t\tscriptedPanel -edit -l (localizedPanelLabel(\"Profiler Tool\")) -mbv $menusOkayInPanels  $panelName;\n"
		+ "\t\tif (!$useSceneConfig) {\n\t\t\tpanel -e -l $label $panelName;\n\t\t}\n\t}\n\n\n\t$panelName = `sceneUIReplacement -getNextScriptedPanel \"VFBPanelType\" (localizedPanelLabel(\"V-Ray Frame Buffer\")) `;\n\tif (\"\" == $panelName) {\n\t\tif ($useSceneConfig) {\n\t\t\t$panelName = `scriptedPanel -unParent  -type \"VFBPanelType\" -l (localizedPanelLabel(\"V-Ray Frame Buffer\")) -mbv $menusOkayInPanels `;\n\t\t}\n\t} else {\n\t\t$label = `panel -q -label $panelName`;\n\t\tscriptedPanel -edit -l (localizedPanelLabel(\"V-Ray Frame Buffer\")) -mbv $menusOkayInPanels  $panelName;\n\t\tif (!$useSceneConfig) {\n\t\t\tpanel -e -l $label $panelName;\n\t\t}\n\t}\n\n\n\t$panelName = `sceneUIReplacement -getNextScriptedPanel \"hyperShadePanel\" (localizedPanelLabel(\"Hypershade\")) `;\n\tif (\"\" == $panelName) {\n\t\tif ($useSceneConfig) {\n\t\t\t$panelName = `scriptedPanel -unParent  -type \"hyperShadePanel\" -l (localizedPanelLabel(\"Hypershade\")) -mbv $menusOkayInPanels `;\n\t\t}\n\t} else {\n\t\t$label = `panel -q -label $panelName`;\n\t\tscriptedPanel -edit -l (localizedPanelLabel(\"Hypershade\")) -mbv $menusOkayInPanels  $panelName;\n"
		+ "\t\tif (!$useSceneConfig) {\n\t\t\tpanel -e -l $label $panelName;\n\t\t}\n\t}\n\n\n\t$panelName = `sceneUIReplacement -getNextScriptedPanel \"nodeEditorPanel\" (localizedPanelLabel(\"Node Editor\")) `;\n\tif (\"\" == $panelName) {\n\t\tif ($useSceneConfig) {\n\t\t\t$panelName = `scriptedPanel -unParent  -type \"nodeEditorPanel\" -l (localizedPanelLabel(\"Node Editor\")) -mbv $menusOkayInPanels `;\n\n\t\t\t$editorName = ($panelName+\"NodeEditorEd\");\n            nodeEditor -e \n                -allAttributes 0\n                -allNodes 0\n                -autoSizeNodes 1\n                -consistentNameSize 1\n                -createNodeCommand \"nodeEdCreateNodeCommand\" \n                -defaultPinnedState 0\n                -additiveGraphingMode 0\n                -settingsChangedCallback \"nodeEdSyncControls\" \n                -traversalDepthLimit -1\n                -keyPressCommand \"nodeEdKeyPressCommand\" \n                -keyReleaseCommand \"nodeEdKeyReleaseCommand\" \n                -nodeTitleMode \"name\" \n                -gridSnap 0\n                -gridVisibility 1\n"
		+ "                -popupMenuScript \"nodeEdBuildPanelMenus\" \n                -showNamespace 1\n                -showShapes 1\n                -showSGShapes 0\n                -showTransforms 1\n                -useAssets 1\n                -syncedSelection 1\n                -extendToShapes 1\n                -activeTab 0\n                -editorMode \"default\" \n                $editorName;\n\t\t}\n\t} else {\n\t\t$label = `panel -q -label $panelName`;\n\t\tscriptedPanel -edit -l (localizedPanelLabel(\"Node Editor\")) -mbv $menusOkayInPanels  $panelName;\n\n\t\t\t$editorName = ($panelName+\"NodeEditorEd\");\n            nodeEditor -e \n                -allAttributes 0\n                -allNodes 0\n                -autoSizeNodes 1\n                -consistentNameSize 1\n                -createNodeCommand \"nodeEdCreateNodeCommand\" \n                -defaultPinnedState 0\n                -additiveGraphingMode 0\n                -settingsChangedCallback \"nodeEdSyncControls\" \n                -traversalDepthLimit -1\n                -keyPressCommand \"nodeEdKeyPressCommand\" \n"
		+ "                -keyReleaseCommand \"nodeEdKeyReleaseCommand\" \n                -nodeTitleMode \"name\" \n                -gridSnap 0\n                -gridVisibility 1\n                -popupMenuScript \"nodeEdBuildPanelMenus\" \n                -showNamespace 1\n                -showShapes 1\n                -showSGShapes 0\n                -showTransforms 1\n                -useAssets 1\n                -syncedSelection 1\n                -extendToShapes 1\n                -activeTab 0\n                -editorMode \"default\" \n                $editorName;\n\t\tif (!$useSceneConfig) {\n\t\t\tpanel -e -l $label $panelName;\n\t\t}\n\t}\n\n\n\tif ($useSceneConfig) {\n        string $configName = `getPanel -cwl (localizedPanelLabel(\"Current Layout\"))`;\n        if (\"\" != $configName) {\n\t\t\tpanelConfiguration -edit -label (localizedPanelLabel(\"Current Layout\")) \n\t\t\t\t-defaultImage \"vacantCell.xP:/\"\n\t\t\t\t-image \"\"\n\t\t\t\t-sc false\n\t\t\t\t-configString \"global string $gMainPane; paneLayout -e -cn \\\"single\\\" -ps 1 100 100 $gMainPane;\"\n\t\t\t\t-removeAllPanels\n\t\t\t\t-ap false\n"
		+ "\t\t\t\t\t(localizedPanelLabel(\"Persp View\")) \n\t\t\t\t\t\"modelPanel\"\n"
		+ "\t\t\t\t\t\"$panelName = `modelPanel -unParent -l (localizedPanelLabel(\\\"Persp View\\\")) -mbv $menusOkayInPanels `;\\n$editorName = $panelName;\\nmodelEditor -e \\n    -cam `findStartUpCamera persp` \\n    -useInteractiveMode 0\\n    -displayLights \\\"default\\\" \\n    -displayAppearance \\\"smoothShaded\\\" \\n    -activeOnly 0\\n    -ignorePanZoom 0\\n    -wireframeOnShaded 0\\n    -headsUpDisplay 1\\n    -holdOuts 1\\n    -selectionHiliteDisplay 1\\n    -useDefaultMaterial 0\\n    -bufferMode \\\"double\\\" \\n    -twoSidedLighting 0\\n    -backfaceCulling 0\\n    -xray 0\\n    -jointXray 0\\n    -activeComponentsXray 0\\n    -displayTextures 0\\n    -smoothWireframe 0\\n    -lineWidth 1\\n    -textureAnisotropic 0\\n    -textureHilight 1\\n    -textureSampling 2\\n    -textureDisplay \\\"modulate\\\" \\n    -textureMaxSize 8192\\n    -fogging 0\\n    -fogSource \\\"fragment\\\" \\n    -fogMode \\\"linear\\\" \\n    -fogStart 0\\n    -fogEnd 100\\n    -fogDensity 0.1\\n    -fogColor 0.5 0.5 0.5 1 \\n    -depthOfFieldPreview 1\\n    -maxConstantTransparency 1\\n    -rendererName \\\"vp2Renderer\\\" \\n    -objectFilterShowInHUD 1\\n    -isFiltered 0\\n    -colorResolution 256 256 \\n    -bumpResolution 512 512 \\n    -textureCompression 0\\n    -transparencyAlgorithm \\\"frontAndBackCull\\\" \\n    -transpInShadows 0\\n    -cullingOverride \\\"none\\\" \\n    -lowQualityLighting 0\\n    -maximumNumHardwareLights 1\\n    -occlusionCulling 0\\n    -shadingModel 0\\n    -useBaseRenderer 0\\n    -useReducedRenderer 0\\n    -smallObjectCulling 0\\n    -smallObjectThreshold -1 \\n    -interactiveDisableShadows 0\\n    -interactiveBackFaceCull 0\\n    -sortTransparent 1\\n    -nurbsCurves 1\\n    -nurbsSurfaces 1\\n    -polymeshes 1\\n    -subdivSurfaces 1\\n    -planes 1\\n    -lights 1\\n    -cameras 1\\n    -controlVertices 1\\n    -hulls 1\\n    -grid 1\\n    -imagePlane 1\\n    -joints 1\\n    -ikHandles 1\\n    -deformers 1\\n    -dynamics 1\\n    -particleInstancers 1\\n    -fluids 1\\n    -hairSystems 1\\n    -follicles 1\\n    -nCloths 1\\n    -nParticles 1\\n    -nRigids 1\\n    -dynamicConstraints 1\\n    -locators 1\\n    -manipulators 1\\n    -pluginShapes 1\\n    -dimensions 1\\n    -handles 1\\n    -pivots 1\\n    -textures 1\\n    -strokes 1\\n    -motionTrails 1\\n    -clipGhosts 1\\n    -greasePencils 1\\n    -shadows 0\\n    -captureSequenceNumber -1\\n    -width 1735\\n    -height 792\\n    -sceneRenderFilter 0\\n    $editorName;\\nmodelEditor -e -viewSelected 0 $editorName;\\nmodelEditor -e \\n    -pluginObjects \\\"gpuCacheDisplayFilter\\\" 1 \\n    $editorName\"\n"
		+ "\t\t\t\t\t\"modelPanel -edit -l (localizedPanelLabel(\\\"Persp View\\\")) -mbv $menusOkayInPanels  $panelName;\\n$editorName = $panelName;\\nmodelEditor -e \\n    -cam `findStartUpCamera persp` \\n    -useInteractiveMode 0\\n    -displayLights \\\"default\\\" \\n    -displayAppearance \\\"smoothShaded\\\" \\n    -activeOnly 0\\n    -ignorePanZoom 0\\n    -wireframeOnShaded 0\\n    -headsUpDisplay 1\\n    -holdOuts 1\\n    -selectionHiliteDisplay 1\\n    -useDefaultMaterial 0\\n    -bufferMode \\\"double\\\" \\n    -twoSidedLighting 0\\n    -backfaceCulling 0\\n    -xray 0\\n    -jointXray 0\\n    -activeComponentsXray 0\\n    -displayTextures 0\\n    -smoothWireframe 0\\n    -lineWidth 1\\n    -textureAnisotropic 0\\n    -textureHilight 1\\n    -textureSampling 2\\n    -textureDisplay \\\"modulate\\\" \\n    -textureMaxSize 8192\\n    -fogging 0\\n    -fogSource \\\"fragment\\\" \\n    -fogMode \\\"linear\\\" \\n    -fogStart 0\\n    -fogEnd 100\\n    -fogDensity 0.1\\n    -fogColor 0.5 0.5 0.5 1 \\n    -depthOfFieldPreview 1\\n    -maxConstantTransparency 1\\n    -rendererName \\\"vp2Renderer\\\" \\n    -objectFilterShowInHUD 1\\n    -isFiltered 0\\n    -colorResolution 256 256 \\n    -bumpResolution 512 512 \\n    -textureCompression 0\\n    -transparencyAlgorithm \\\"frontAndBackCull\\\" \\n    -transpInShadows 0\\n    -cullingOverride \\\"none\\\" \\n    -lowQualityLighting 0\\n    -maximumNumHardwareLights 1\\n    -occlusionCulling 0\\n    -shadingModel 0\\n    -useBaseRenderer 0\\n    -useReducedRenderer 0\\n    -smallObjectCulling 0\\n    -smallObjectThreshold -1 \\n    -interactiveDisableShadows 0\\n    -interactiveBackFaceCull 0\\n    -sortTransparent 1\\n    -nurbsCurves 1\\n    -nurbsSurfaces 1\\n    -polymeshes 1\\n    -subdivSurfaces 1\\n    -planes 1\\n    -lights 1\\n    -cameras 1\\n    -controlVertices 1\\n    -hulls 1\\n    -grid 1\\n    -imagePlane 1\\n    -joints 1\\n    -ikHandles 1\\n    -deformers 1\\n    -dynamics 1\\n    -particleInstancers 1\\n    -fluids 1\\n    -hairSystems 1\\n    -follicles 1\\n    -nCloths 1\\n    -nParticles 1\\n    -nRigids 1\\n    -dynamicConstraints 1\\n    -locators 1\\n    -manipulators 1\\n    -pluginShapes 1\\n    -dimensions 1\\n    -handles 1\\n    -pivots 1\\n    -textures 1\\n    -strokes 1\\n    -motionTrails 1\\n    -clipGhosts 1\\n    -greasePencils 1\\n    -shadows 0\\n    -captureSequenceNumber -1\\n    -width 1735\\n    -height 792\\n    -sceneRenderFilter 0\\n    $editorName;\\nmodelEditor -e -viewSelected 0 $editorName;\\nmodelEditor -e \\n    -pluginObjects \\\"gpuCacheDisplayFilter\\\" 1 \\n    $editorName\"\n"
		+ "\t\t\t\t$configName;\n\n            setNamedPanelLayout (localizedPanelLabel(\"Current Layout\"));\n        }\n\n        panelHistory -e -clear mainPanelHistory;\n        setFocus `paneLayout -q -p1 $gMainPane`;\n        sceneUIReplacement -deleteRemaining;\n        sceneUIReplacement -clear;\n\t}\n\n\ngrid -spacing 5 -size 50 -divisions 5 -displayAxes yes -displayGridLines yes -displayDivisionLines yes -displayPerspectiveLabels yes -displayOrthographicLabels yes -displayAxesBold yes -perspectiveLabelPosition axis -orthographicLabelPosition axis;\nviewManip -drawCompass 0 -compassAngle 0 -frontParameters \"\" -homeParameters \"\" -selectionLockParameters \"\";\n}\n");
	setAttr ".st" 3;
createNode script -n "sceneConfigurationScriptNode";
	rename -uid "060BDD77-47C2-986D-9B3E-0D8B9CD0FC98";
	setAttr ".b" -type "string" "playbackOptions -min 1.041667 -max 125 -ast 1.041667 -aet 208.333333 ";
	setAttr ".st" 6;
createNode nodeGraphEditorBookmarkInfo -n "nodeGraphEditorBookmarkInfo1";
	rename -uid "B9F09C3E-494D-41F9-D085-CB8D8232C8C9";
	setAttr -s 8 ".ni";
	setAttr ".ni[0].x" 1.4285714626312256;
	setAttr ".ni[0].y" -177.14285278320312;
	setAttr ".ni[0].nvs" 1920;
	setAttr ".ni[1].x" 212.85714721679687;
	setAttr ".ni[1].y" -177.14285278320312;
	setAttr ".ni[1].nvs" 1920;
	setAttr ".ni[2].x" 424.28570556640625;
	setAttr ".ni[2].y" -177.14285278320312;
	setAttr ".ni[2].nvs" 1920;
	setAttr ".ni[3].x" 1.4285714626312256;
	setAttr ".ni[3].y" -72.857139587402344;
	setAttr ".ni[3].nvs" 1920;
	setAttr ".ni[4].x" 212.85714721679687;
	setAttr ".ni[4].y" -72.857139587402344;
	setAttr ".ni[4].nvs" 1920;
	setAttr ".ni[5].x" 424.28570556640625;
	setAttr ".ni[5].y" -72.857139587402344;
	setAttr ".ni[5].nvs" 1920;
	setAttr ".ni[6].x" 635.71429443359375;
	setAttr ".ni[6].y" -177.14285278320312;
	setAttr ".ni[6].nvs" 1920;
	setAttr ".ni[7].x" 635.71429443359375;
	setAttr ".ni[7].y" -72.857139587402344;
	setAttr ".ni[7].nvs" 1920;
createNode RedshiftOptions -s -n "redshiftOptions";
	rename -uid "FE15A959-4FFC-54A7-24D7-448983960A2D";
createNode VRaySettingsNode -s -n "vraySettings";
	rename -uid "4E4A2140-4101-935A-689C-45B086EAE1D2";
	setAttr ".pe" 2;
	setAttr ".se" 3;
	setAttr ".cmph" 60;
	setAttr ".cfile" -type "string" "";
	setAttr ".cfile2" -type "string" "";
	setAttr ".casf" -type "string" "";
	setAttr ".casf2" -type "string" "";
	setAttr ".st" 3;
	setAttr ".msr" 2;
	setAttr ".sd" 1000;
	setAttr ".ss" 0.01;
	setAttr ".pfts" 20;
	setAttr ".ufg" yes;
	setAttr ".fnm" -type "string" "";
	setAttr ".lcfnm" -type "string" "";
	setAttr ".asf" -type "string" "";
	setAttr ".lcasf" -type "string" "";
	setAttr ".urtrshd" yes;
	setAttr ".rtrshd" 2;
	setAttr ".ifile" -type "string" "";
	setAttr ".ifile2" -type "string" "";
	setAttr ".iasf" -type "string" "";
	setAttr ".iasf2" -type "string" "";
	setAttr ".pmfile" -type "string" "";
	setAttr ".pmfile2" -type "string" "";
	setAttr ".pmasf" -type "string" "";
	setAttr ".pmasf2" -type "string" "";
	setAttr ".dmcstd" yes;
	setAttr ".cmao" 2;
	setAttr ".cg" 2.2000000476837158;
	setAttr ".mtah" yes;
	setAttr ".srflc" 1;
	setAttr ".seu" yes;
	setAttr ".gormio" yes;
	setAttr ".wi" 960;
	setAttr ".he" 540;
	setAttr ".aspr" 1.7777780294418335;
	setAttr ".jpegq" 100;
	setAttr ".vfbOn" yes;
	setAttr ".mSceneName" -type "string" "C:/Users/Admin/Documents/maya/2015-x64/Plug-Ins/SLiB/lib/shader/Metal_vRay_Samples/Flaky_001/Flaky_001.ma";
createNode nodeGraphEditorInfo -n "hyperShadePrimaryNodeEditorSavedTabsInfo";
	rename -uid "757923F2-4A30-56DE-ADC2-419586981346";
	setAttr ".tgi[0].tn" -type "string" "Untitled_1";
	setAttr ".tgi[0].vl" -type "double2" -354.35468543715416 -641.2948105530113 ;
	setAttr ".tgi[0].vh" -type "double2" 1120.3975916148777 55.952014311724838 ;
	setAttr -s 4 ".tgi[0].ni";
	setAttr ".tgi[0].ni[0].x" 308.57144165039063;
	setAttr ".tgi[0].ni[0].y" -190;
	setAttr ".tgi[0].ni[0].nvs" 1923;
	setAttr ".tgi[0].ni[1].x" 1.4285714626312256;
	setAttr ".tgi[0].ni[1].y" -1.4285714626312256;
	setAttr ".tgi[0].ni[1].nvs" 1923;
	setAttr ".tgi[0].ni[2].x" 1.4285714626312256;
	setAttr ".tgi[0].ni[2].y" -355.71429443359375;
	setAttr ".tgi[0].ni[2].nvs" 1923;
	setAttr ".tgi[0].ni[3].x" 570;
	setAttr ".tgi[0].ni[3].y" -231.42857360839844;
	setAttr ".tgi[0].ni[3].nvs" 1923;
select -ne :time1;
	setAttr -av -k on ".cch";
	setAttr -cb on ".ihi";
	setAttr -k on ".nds";
	setAttr -cb on ".bnm";
	setAttr ".o" 0;
select -ne :hardwareRenderingGlobals;
	setAttr ".otfna" -type "stringArray" 22 "NURBS Curves" "NURBS Surfaces" "Polygons" "Subdiv Surface" "Particles" "Particle Instance" "Fluids" "Strokes" "Image Planes" "UI" "Lights" "Cameras" "Locators" "Joints" "IK Handles" "Deformers" "Motion Trails" "Components" "Hair Systems" "Follicles" "Misc. UI" "Ornaments"  ;
	setAttr ".otfva" -type "Int32Array" 22 0 1 1 1 1 1
		 1 1 1 0 0 0 0 0 0 0 0 0
		 0 0 0 0 ;
	setAttr ".etmr" yes;
select -ne :renderPartition;
	setAttr -k on ".cch";
	setAttr -k on ".ihi";
	setAttr -k on ".nds";
	setAttr -cb on ".bnm";
	setAttr -s 3 ".st";
	setAttr -k on ".an";
	setAttr -k on ".pt";
select -ne :renderGlobalsList1;
	setAttr -k on ".cch";
	setAttr -k on ".ihi";
	setAttr -k on ".nds";
	setAttr -cb on ".bnm";
select -ne :defaultShaderList1;
	setAttr -k on ".cch";
	setAttr -k on ".ihi";
	setAttr -k on ".nds";
	setAttr -cb on ".bnm";
	setAttr -s 7 ".s";
select -ne :postProcessList1;
	setAttr -k on ".cch";
	setAttr -k on ".ihi";
	setAttr -k on ".nds";
	setAttr -cb on ".bnm";
	setAttr -s 2 ".p";
select -ne :defaultRenderingList1;
select -ne :initialShadingGroup;
	addAttr -s false -ci true -sn "rsSurfaceShader" -ln "rsSurfaceShader" -at "message";
	addAttr -s false -ci true -sn "rsShadowShader" -ln "rsShadowShader" -at "message";
	addAttr -s false -ci true -sn "rsPhotonShader" -ln "rsPhotonShader" -at "message";
	addAttr -s false -ci true -sn "rsEnvironmentShader" -ln "rsEnvironmentShader" -at "message";
	addAttr -s false -ci true -sn "rsBumpmapShader" -ln "rsBumpmapShader" -at "message";
	addAttr -s false -ci true -sn "rsDisplacementShader" -ln "rsDisplacementShader" 
		-at "message";
	addAttr -ci true -sn "rsMaterialId" -ln "rsMaterialId" -min 0 -max 2147483647 -smn 
		0 -smx 100 -at "long";
	setAttr -k on ".cch";
	setAttr -k on ".ihi";
	setAttr -av -k on ".nds";
	setAttr -cb on ".bnm";
	setAttr -k on ".mwc";
	setAttr -k on ".an";
	setAttr -k on ".il";
	setAttr -k on ".vo";
	setAttr -k on ".eo";
	setAttr -k on ".fo";
	setAttr -k on ".epo";
	setAttr ".ro" yes;
select -ne :initialParticleSE;
	addAttr -s false -ci true -sn "rsSurfaceShader" -ln "rsSurfaceShader" -at "message";
	addAttr -s false -ci true -sn "rsShadowShader" -ln "rsShadowShader" -at "message";
	addAttr -s false -ci true -sn "rsPhotonShader" -ln "rsPhotonShader" -at "message";
	addAttr -s false -ci true -sn "rsEnvironmentShader" -ln "rsEnvironmentShader" -at "message";
	addAttr -s false -ci true -sn "rsBumpmapShader" -ln "rsBumpmapShader" -at "message";
	addAttr -s false -ci true -sn "rsDisplacementShader" -ln "rsDisplacementShader" 
		-at "message";
	addAttr -ci true -sn "rsMaterialId" -ln "rsMaterialId" -min 0 -max 2147483647 -smn 
		0 -smx 100 -at "long";
	setAttr -av -k on ".cch";
	setAttr -k on ".ihi";
	setAttr -av -k on ".nds";
	setAttr -cb on ".bnm";
	setAttr -k on ".mwc";
	setAttr -k on ".an";
	setAttr -k on ".il";
	setAttr -k on ".vo";
	setAttr -k on ".eo";
	setAttr -k on ".fo";
	setAttr -k on ".epo";
	setAttr ".ro" yes;
select -ne :defaultRenderGlobals;
	addAttr -ci true -sn "shave_old_preRenderMel" -ln "shave_old_preRenderMel" -dt "string";
	addAttr -ci true -sn "shave_old_postRenderMel" -ln "shave_old_postRenderMel" -dt "string";
	setAttr -k on ".cch";
	setAttr -cb on ".ihi";
	setAttr -k on ".nds";
	setAttr -cb on ".bnm";
	setAttr -k on ".macc";
	setAttr -k on ".macd";
	setAttr -k on ".macq";
	setAttr -k on ".mcfr";
	setAttr -cb on ".ifg";
	setAttr -k on ".clip";
	setAttr -k on ".edm";
	setAttr ".edl" no;
	setAttr ".ren" -type "string" "vray";
	setAttr -av -k on ".esr";
	setAttr -k on ".ors";
	setAttr -cb on ".sdf";
	setAttr -av ".outf" 32;
	setAttr -cb on ".imfkey";
	setAttr -k on ".gama";
	setAttr -k on ".an";
	setAttr -cb on ".ar";
	setAttr -k on ".fs";
	setAttr -k on ".ef";
	setAttr -av -k on ".bfs";
	setAttr -cb on ".me";
	setAttr -cb on ".se";
	setAttr -k on ".be";
	setAttr -cb on ".ep";
	setAttr -k on ".fec";
	setAttr -k on ".ofc";
	setAttr -cb on ".ofe";
	setAttr -cb on ".efe";
	setAttr -cb on ".oft";
	setAttr -cb on ".umfn";
	setAttr -cb on ".ufe";
	setAttr -cb on ".pff";
	setAttr -cb on ".peie";
	setAttr -cb on ".ifp";
	setAttr -k on ".comp";
	setAttr -k on ".cth";
	setAttr -k on ".soll";
	setAttr -cb on ".sosl";
	setAttr -k on ".rd";
	setAttr -k on ".lp";
	setAttr -av -k on ".sp";
	setAttr -k on ".shs";
	setAttr -k on ".lpr";
	setAttr -cb on ".gv";
	setAttr -cb on ".sv";
	setAttr -k on ".mm";
	setAttr -k on ".npu";
	setAttr -k on ".itf";
	setAttr -k on ".shp";
	setAttr -cb on ".isp";
	setAttr -k on ".uf";
	setAttr -k on ".oi";
	setAttr -k on ".rut";
	setAttr -cb on ".mb";
	setAttr -av -k on ".mbf";
	setAttr -k on ".afp";
	setAttr -k on ".pfb";
	setAttr -k on ".pram" -type "string" "shaveVrayPreRender;";
	setAttr -k on ".poam" -type "string" "shaveVrayPostRender;";
	setAttr -k on ".prlm";
	setAttr -k on ".polm";
	setAttr ".prm" -type "string" "shave_MRFrameStart;";
	setAttr ".pom" -type "string" "shave_MRFrameEnd;";
	setAttr -cb on ".pfrm";
	setAttr -cb on ".pfom";
	setAttr -av ".bll";
	setAttr -av -k on ".bls";
	setAttr -av -k on ".smv";
	setAttr -k on ".ubc";
	setAttr -k on ".mbc";
	setAttr -cb on ".mbt";
	setAttr -k on ".udbx";
	setAttr -k on ".smc";
	setAttr -k on ".kmv";
	setAttr -cb on ".isl";
	setAttr -cb on ".ism";
	setAttr -cb on ".imb";
	setAttr -k on ".rlen";
	setAttr -av -k on ".frts";
	setAttr -k on ".tlwd";
	setAttr -k on ".tlht";
	setAttr -k on ".jfc";
	setAttr -cb on ".rsb";
	setAttr -k on ".ope";
	setAttr -k on ".oppf";
	setAttr -cb on ".hbl";
	setAttr ".shave_old_preRenderMel" -type "string" "";
	setAttr ".shave_old_postRenderMel" -type "string" "";
select -ne :defaultResolution;
	setAttr -av -k on ".cch";
	setAttr -k on ".ihi";
	setAttr -av -k on ".nds";
	setAttr -k on ".bnm";
	setAttr -av ".w";
	setAttr -av ".h";
	setAttr -av ".pa" 1.0000001192092896;
	setAttr -av ".al";
	setAttr -av ".dar" 1;
	setAttr -av -k on ".ldar";
	setAttr -cb on ".dpi";
	setAttr -av -k on ".off";
	setAttr -av -k on ".fld";
	setAttr -av -k on ".zsl";
	setAttr -cb on ".isu";
	setAttr -cb on ".pdu";
select -ne :defaultColorMgtGlobals;
	setAttr ".cme" no;
select -ne :hardwareRenderGlobals;
	setAttr -k on ".cch";
	setAttr -cb on ".ihi";
	setAttr -k on ".nds";
	setAttr -cb on ".bnm";
	setAttr ".ctrs" 256;
	setAttr ".btrs" 512;
	setAttr -k off ".fbfm";
	setAttr -k off -cb on ".ehql";
	setAttr -k off -cb on ".eams";
	setAttr -k off ".eeaa";
	setAttr -k off ".engm";
	setAttr -k off ".mes";
	setAttr -k off ".emb";
	setAttr -av -k off ".mbbf";
	setAttr -k off ".mbs";
	setAttr -k off ".trm";
	setAttr -k off -cb on ".tshc";
	setAttr -k off ".enpt";
	setAttr -k off ".clmt";
	setAttr -k off -cb on ".tcov";
	setAttr -k off -cb on ".lith";
	setAttr -k off -cb on ".sobc";
	setAttr -k off -cb on ".cuth";
	setAttr -k off -cb on ".hgcd";
	setAttr -k off -cb on ".hgci";
	setAttr -k off -cb on ".mgcs";
	setAttr -k off ".twa";
	setAttr -k off ".twz";
	setAttr -k on ".hwcc";
	setAttr -k on ".hwdp";
	setAttr -k on ".hwql";
	setAttr -k on ".hwfr";
connectAttr "vRay_Metal_Flaky_001_VRayMtl_01.oc" "vRay_Metal_Flaky_001_MAT.bm";
connectAttr "vRay_Metal_Flaky_001_VRayMtl_02.oc" "vRay_Metal_Flaky_001_MAT.cm0";
connectAttr "vRay_Metal_Flaky_001_MAT.oc" "vRay_Metal_Flaky_001SG.ss";
connectAttr "vRay_Metal_Flaky_001_File01.oc" "vRay_Metal_Flaky_001_VRayMtl_01.bm"
		;
connectAttr "vRay_Metal_Flaky_001_p2d01.o" "vRay_Metal_Flaky_001_File01.uv";
connectAttr "vRay_Metal_Flaky_001_p2d01.ofs" "vRay_Metal_Flaky_001_File01.fs";
connectAttr "vRay_Metal_Flaky_001_p2d01.c" "vRay_Metal_Flaky_001_File01.c";
connectAttr "vRay_Metal_Flaky_001_p2d01.tf" "vRay_Metal_Flaky_001_File01.tf";
connectAttr "vRay_Metal_Flaky_001_p2d01.rf" "vRay_Metal_Flaky_001_File01.rf";
connectAttr "vRay_Metal_Flaky_001_p2d01.mu" "vRay_Metal_Flaky_001_File01.mu";
connectAttr "vRay_Metal_Flaky_001_p2d01.mv" "vRay_Metal_Flaky_001_File01.mv";
connectAttr "vRay_Metal_Flaky_001_p2d01.s" "vRay_Metal_Flaky_001_File01.s";
connectAttr "vRay_Metal_Flaky_001_p2d01.wu" "vRay_Metal_Flaky_001_File01.wu";
connectAttr "vRay_Metal_Flaky_001_p2d01.wv" "vRay_Metal_Flaky_001_File01.wv";
connectAttr "vRay_Metal_Flaky_001_p2d01.re" "vRay_Metal_Flaky_001_File01.re";
connectAttr "vRay_Metal_Flaky_001_p2d01.vt1" "vRay_Metal_Flaky_001_File01.vt1";
connectAttr "vRay_Metal_Flaky_001_p2d01.vt2" "vRay_Metal_Flaky_001_File01.vt2";
connectAttr "vRay_Metal_Flaky_001_p2d01.vt3" "vRay_Metal_Flaky_001_File01.vt3";
connectAttr "vRay_Metal_Flaky_001_p2d01.vc1" "vRay_Metal_Flaky_001_File01.vc1";
connectAttr "vRay_Metal_Flaky_001_p2d01.n" "vRay_Metal_Flaky_001_File01.n";
connectAttr "vRay_Metal_Flaky_001_p2d01.of" "vRay_Metal_Flaky_001_File01.of";
connectAttr "vRay_Metal_Flaky_001_p2d01.r" "vRay_Metal_Flaky_001_File01.ro";
connectAttr ":defaultColorMgtGlobals.cme" "vRay_Metal_Flaky_001_File01.cme";
connectAttr ":defaultColorMgtGlobals.cfe" "vRay_Metal_Flaky_001_File01.cmcf";
connectAttr ":defaultColorMgtGlobals.cfp" "vRay_Metal_Flaky_001_File01.cmcp";
connectAttr ":defaultColorMgtGlobals.wsn" "vRay_Metal_Flaky_001_File01.ws";
connectAttr "vRay_Metal_Flaky_001SG.msg" "materialInfo113.sg";
connectAttr "vRay_Metal_Flaky_001_MAT.msg" "materialInfo113.m";
relationship "link" ":lightLinker1" ":initialShadingGroup.message" ":defaultLightSet.message";
relationship "link" ":lightLinker1" ":initialParticleSE.message" ":defaultLightSet.message";
relationship "link" ":lightLinker1" "vRay_Metal_Flaky_001SG.message" ":defaultLightSet.message";
relationship "shadowLink" ":lightLinker1" ":initialShadingGroup.message" ":defaultLightSet.message";
relationship "shadowLink" ":lightLinker1" ":initialParticleSE.message" ":defaultLightSet.message";
relationship "shadowLink" ":lightLinker1" "vRay_Metal_Flaky_001SG.message" ":defaultLightSet.message";
connectAttr "layerManager.dli[0]" "defaultLayer.id";
connectAttr "renderLayerManager.rlmi[0]" "defaultRenderLayer.rlid";
connectAttr ":persp.msg" "nodeGraphEditorBookmarkInfo1.ni[0].dn";
connectAttr ":perspShape.msg" "nodeGraphEditorBookmarkInfo1.ni[1].dn";
connectAttr ":top.msg" "nodeGraphEditorBookmarkInfo1.ni[2].dn";
connectAttr ":topShape.msg" "nodeGraphEditorBookmarkInfo1.ni[3].dn";
connectAttr ":front.msg" "nodeGraphEditorBookmarkInfo1.ni[4].dn";
connectAttr ":frontShape.msg" "nodeGraphEditorBookmarkInfo1.ni[5].dn";
connectAttr ":side.msg" "nodeGraphEditorBookmarkInfo1.ni[6].dn";
connectAttr ":sideShape.msg" "nodeGraphEditorBookmarkInfo1.ni[7].dn";
connectAttr "vRay_Metal_Flaky_001_MAT.msg" "hyperShadePrimaryNodeEditorSavedTabsInfo.tgi[0].ni[0].dn"
		;
connectAttr "vRay_Metal_Flaky_001_VRayMtl_02.msg" "hyperShadePrimaryNodeEditorSavedTabsInfo.tgi[0].ni[1].dn"
		;
connectAttr "vRay_Metal_Flaky_001_VRayMtl_01.msg" "hyperShadePrimaryNodeEditorSavedTabsInfo.tgi[0].ni[2].dn"
		;
connectAttr "vRay_Metal_Flaky_001SG.msg" "hyperShadePrimaryNodeEditorSavedTabsInfo.tgi[0].ni[3].dn"
		;
connectAttr "vRay_Metal_Flaky_001SG.pa" ":renderPartition.st" -na;
connectAttr "vRay_Metal_Flaky_001_MAT.msg" ":defaultShaderList1.s" -na;
connectAttr "vRay_Metal_Flaky_001_VRayMtl_01.msg" ":defaultShaderList1.s" -na;
connectAttr "vRay_Metal_Flaky_001_VRayMtl_02.msg" ":defaultShaderList1.s" -na;
connectAttr "defaultRenderLayer.msg" ":defaultRenderingList1.r" -na;
// End of Flaky_001.ma
