//Maya ASCII 2016ff07 scene
//Name: arnold_std.ma
//Last modified: Thu, Jun 09, 2016 05:17:25 PM
//Codeset: 1252
requires maya "2016ff07";
requires -nodeType "aiStandard" "mtoa" "1.2.7.2";
currentUnit -l centimeter -a degree -t pal;
fileInfo "application" "maya";
fileInfo "product" "Maya 2016";
fileInfo "version" "2016";
fileInfo "cutIdentifier" "201511301000-979500-1";
fileInfo "osv" "Microsoft Windows 7 Home Premium Edition, 64-bit Windows 7 Service Pack 1 (Build 7601)\n";
createNode shadingEngine -n "aiStandard1SG";
	rename -uid "90B6B27E-4FDA-898A-C27B-FD87629180A7";
	setAttr ".ihi" 0;
	setAttr ".ro" yes;
createNode materialInfo -n "materialInfo125";
	rename -uid "AAF8825D-4366-DBE5-F1E6-39A17038795D";
createNode aiStandard -n "aiStandard1";
	rename -uid "E5460CCF-4142-D1E6-3CE7-3A9B0819CD31";
	setAttr ".Kd" 0.35080644488334656;
	setAttr ".Kd_color" -type "float3" 1 0.30770004 0 ;
	setAttr ".diffuse_roughness" 0.35483869910240173;
	setAttr ".Ks" 1;
	setAttr ".specular_roughness" 0.22177419066429138;
	setAttr ".specular_anisotropy" 0.75806450843811035;
	setAttr ".specular_distribution" 1;
	setAttr ".Kr" 0.31355932354927063;
	setAttr ".Kb" 1;
	setAttr ".Fresnel" yes;
createNode lightLinker -s -n "lightLinker1";
	rename -uid "0F26C021-4C84-603B-9485-AFBFFF73C73D";
	setAttr -s 6 ".lnk";
	setAttr -s 6 ".slnk";
select -ne :time1;
	setAttr -av -k on ".cch";
	setAttr -cb on ".ihi";
	setAttr -k on ".nds";
	setAttr -cb on ".bnm";
	setAttr ".o" 0;
select -ne :hardwareRenderingGlobals;
	setAttr ".otfna" -type "stringArray" 22 "NURBS Curves" "NURBS Surfaces" "Polygons" "Subdiv Surface" "Particles" "Particle Instance" "Fluids" "Strokes" "Image Planes" "UI" "Lights" "Cameras" "Locators" "Joints" "IK Handles" "Deformers" "Motion Trails" "Components" "Hair Systems" "Follicles" "Misc. UI" "Ornaments"  ;
	setAttr ".otfva" -type "Int32Array" 22 0 1 1 1 1 1
		 1 1 1 0 0 0 0 0 0 0 0 0
		 0 0 0 0 ;
	setAttr ".etmr" yes;
	setAttr ".fprt" yes;
select -ne :renderPartition;
	setAttr -k on ".cch";
	setAttr -k on ".ihi";
	setAttr -k on ".nds";
	setAttr -cb on ".bnm";
	setAttr -s 6 ".st";
	setAttr -k on ".an";
	setAttr -k on ".pt";
select -ne :renderGlobalsList1;
	setAttr -k on ".cch";
	setAttr -k on ".ihi";
	setAttr -k on ".nds";
	setAttr -cb on ".bnm";
select -ne :defaultShaderList1;
	setAttr -k on ".cch";
	setAttr -k on ".ihi";
	setAttr -k on ".nds";
	setAttr -cb on ".bnm";
	setAttr -s 8 ".s";
select -ne :postProcessList1;
	setAttr -k on ".cch";
	setAttr -k on ".ihi";
	setAttr -k on ".nds";
	setAttr -cb on ".bnm";
	setAttr -s 2 ".p";
select -ne :defaultRenderUtilityList1;
	setAttr -k on ".cch";
	setAttr -k on ".nds";
	setAttr -s 4 ".u";
select -ne :defaultRenderingList1;
select -ne :lightList1;
	setAttr -k on ".cch";
	setAttr -k on ".ihi";
	setAttr -k on ".nds";
	setAttr -cb on ".bnm";
select -ne :defaultTextureList1;
	setAttr -k on ".cch";
	setAttr -cb on ".ihi";
	setAttr -k on ".nds";
	setAttr -cb on ".bnm";
	setAttr -s 5 ".tx";
select -ne :initialShadingGroup;
	addAttr -s false -ci true -sn "rsSurfaceShader" -ln "rsSurfaceShader" -at "message";
	addAttr -s false -ci true -sn "rsShadowShader" -ln "rsShadowShader" -at "message";
	addAttr -s false -ci true -sn "rsPhotonShader" -ln "rsPhotonShader" -at "message";
	addAttr -s false -ci true -sn "rsEnvironmentShader" -ln "rsEnvironmentShader" -at "message";
	addAttr -s false -ci true -sn "rsBumpmapShader" -ln "rsBumpmapShader" -at "message";
	addAttr -s false -ci true -sn "rsDisplacementShader" -ln "rsDisplacementShader" 
		-at "message";
	addAttr -ci true -sn "rsMaterialId" -ln "rsMaterialId" -min 0 -max 2147483647 -smn 
		0 -smx 100 -at "long";
	addAttr -s false -ci true -sn "rsVolumeShader" -ln "rsVolumeShader" -at "message";
	setAttr -k on ".cch";
	setAttr -k on ".ihi";
	setAttr -av -k on ".nds";
	setAttr -cb on ".bnm";
	setAttr -k on ".mwc";
	setAttr -k on ".an";
	setAttr -k on ".il";
	setAttr -k on ".vo";
	setAttr -k on ".eo";
	setAttr -k on ".fo";
	setAttr -k on ".epo";
	setAttr ".ro" yes;
select -ne :initialParticleSE;
	addAttr -s false -ci true -sn "rsSurfaceShader" -ln "rsSurfaceShader" -at "message";
	addAttr -s false -ci true -sn "rsShadowShader" -ln "rsShadowShader" -at "message";
	addAttr -s false -ci true -sn "rsPhotonShader" -ln "rsPhotonShader" -at "message";
	addAttr -s false -ci true -sn "rsEnvironmentShader" -ln "rsEnvironmentShader" -at "message";
	addAttr -s false -ci true -sn "rsBumpmapShader" -ln "rsBumpmapShader" -at "message";
	addAttr -s false -ci true -sn "rsDisplacementShader" -ln "rsDisplacementShader" 
		-at "message";
	addAttr -ci true -sn "rsMaterialId" -ln "rsMaterialId" -min 0 -max 2147483647 -smn 
		0 -smx 100 -at "long";
	addAttr -s false -ci true -sn "rsVolumeShader" -ln "rsVolumeShader" -at "message";
	setAttr -av -k on ".cch";
	setAttr -k on ".ihi";
	setAttr -av -k on ".nds";
	setAttr -cb on ".bnm";
	setAttr -k on ".mwc";
	setAttr -k on ".an";
	setAttr -k on ".il";
	setAttr -k on ".vo";
	setAttr -k on ".eo";
	setAttr -k on ".fo";
	setAttr -k on ".epo";
	setAttr ".ro" yes;
select -ne :defaultRenderGlobals;
	setAttr -k on ".cch";
	setAttr -cb on ".ihi";
	setAttr -k on ".nds";
	setAttr -cb on ".bnm";
	setAttr -k on ".macc";
	setAttr -k on ".macd";
	setAttr -k on ".macq";
	setAttr -k on ".mcfr" 25;
	setAttr -cb on ".ifg";
	setAttr -k on ".clip";
	setAttr -k on ".edm";
	setAttr ".edl" no;
	setAttr ".ren" -type "string" "arnold";
	setAttr -av -k on ".esr";
	setAttr -k on ".ors";
	setAttr -cb on ".sdf";
	setAttr -av ".outf" 51;
	setAttr -cb on ".imfkey" -type "string" "png";
	setAttr -k on ".gama";
	setAttr -k on ".an";
	setAttr -cb on ".ar";
	setAttr -k on ".fs";
	setAttr -k on ".ef";
	setAttr -av -k on ".bfs";
	setAttr -cb on ".me";
	setAttr -cb on ".se";
	setAttr -k on ".be";
	setAttr -cb on ".ep";
	setAttr -k on ".fec";
	setAttr -k on ".ofc";
	setAttr -cb on ".ofe";
	setAttr -cb on ".efe";
	setAttr -cb on ".oft";
	setAttr -cb on ".umfn";
	setAttr -cb on ".ufe";
	setAttr -cb on ".pff";
	setAttr -cb on ".peie";
	setAttr -cb on ".ifp" -type "string" "tempPreview";
	setAttr -k on ".comp";
	setAttr -k on ".cth";
	setAttr -k on ".soll";
	setAttr -cb on ".sosl";
	setAttr -k on ".rd";
	setAttr -k on ".lp";
	setAttr -av -k on ".sp";
	setAttr -k on ".shs";
	setAttr -k on ".lpr";
	setAttr -cb on ".gv";
	setAttr -cb on ".sv";
	setAttr -k on ".mm";
	setAttr -k on ".npu";
	setAttr -k on ".itf";
	setAttr -k on ".shp";
	setAttr -cb on ".isp";
	setAttr -k on ".uf";
	setAttr -k on ".oi";
	setAttr -k on ".rut";
	setAttr -cb on ".mb";
	setAttr -av -k on ".mbf";
	setAttr -k on ".afp";
	setAttr -k on ".pfb";
	setAttr -k on ".pram" -type "string" "python(\"import SLiBPreRenderPY; SLiBPreRenderPY.swapMat()\")";
	setAttr -k on ".poam" -type "string" "";
	setAttr -k on ".prlm";
	setAttr -k on ".polm";
	setAttr -cb on ".pfrm";
	setAttr -cb on ".pfom";
	setAttr -av ".bll";
	setAttr -av -k on ".bls";
	setAttr -av -k on ".smv";
	setAttr -k on ".ubc";
	setAttr -k on ".mbc";
	setAttr -cb on ".mbt";
	setAttr -k on ".udbx";
	setAttr -k on ".smc";
	setAttr -k on ".kmv";
	setAttr -cb on ".isl";
	setAttr -cb on ".ism";
	setAttr -cb on ".imb";
	setAttr -k on ".rlen";
	setAttr -av -k on ".frts";
	setAttr -k on ".tlwd";
	setAttr -k on ".tlht";
	setAttr -k on ".jfc";
	setAttr -cb on ".rsb";
	setAttr -k on ".ope";
	setAttr -k on ".oppf";
	setAttr ".ocp" 3;
	setAttr -cb on ".hbl";
select -ne :defaultResolution;
	setAttr -av -k on ".cch";
	setAttr -k on ".ihi";
	setAttr -av -k on ".nds";
	setAttr -k on ".bnm";
	setAttr -av ".w" 512;
	setAttr -av ".h" 512;
	setAttr -av ".pa" 1;
	setAttr -av ".al";
	setAttr -av ".dar" 1;
	setAttr -av -k on ".ldar";
	setAttr -cb on ".dpi";
	setAttr -av -k on ".off";
	setAttr -av -k on ".fld";
	setAttr -av -k on ".zsl";
	setAttr -cb on ".isu";
	setAttr -cb on ".pdu";
select -ne :defaultLightSet;
	setAttr -k on ".cch";
	setAttr -k on ".ihi";
	setAttr -k on ".nds";
	setAttr -k on ".bnm";
	setAttr -s 2 ".dsm";
	setAttr -k on ".mwc";
	setAttr -k on ".an";
	setAttr -k on ".il";
	setAttr -k on ".vo";
	setAttr -k on ".eo";
	setAttr -k on ".fo";
	setAttr -k on ".epo";
select -ne :defaultColorMgtGlobals;
	setAttr ".ote" yes;
select -ne :hardwareRenderGlobals;
	setAttr -k on ".cch";
	setAttr -cb on ".ihi";
	setAttr -k on ".nds";
	setAttr -cb on ".bnm";
	setAttr ".ctrs" 256;
	setAttr ".btrs" 512;
	setAttr -k off ".fbfm";
	setAttr -k off -cb on ".ehql";
	setAttr -k off -cb on ".eams";
	setAttr -k off -cb on ".eeaa";
	setAttr -k off -cb on ".engm";
	setAttr -k off -cb on ".mes";
	setAttr -k off -cb on ".emb";
	setAttr -av -k off -cb on ".mbbf";
	setAttr -k off -cb on ".mbs";
	setAttr -k off -cb on ".trm";
	setAttr -k off -cb on ".tshc";
	setAttr -k off ".enpt";
	setAttr -k off -cb on ".clmt";
	setAttr -k off -cb on ".tcov";
	setAttr -k off -cb on ".lith";
	setAttr -k off -cb on ".sobc";
	setAttr -k off -cb on ".cuth";
	setAttr -k off -cb on ".hgcd";
	setAttr -k off -cb on ".hgci";
	setAttr -k off -cb on ".mgcs";
	setAttr -k off -cb on ".twa";
	setAttr -k off -cb on ".twz";
	setAttr -k on ".hwcc";
	setAttr -k on ".hwdp";
	setAttr -k on ".hwql";
	setAttr -k on ".hwfr" 25;
connectAttr "aiStandard1.out" "aiStandard1SG.ss";
connectAttr "aiStandard1SG.msg" "materialInfo125.sg";
connectAttr "aiStandard1.msg" "materialInfo125.m";
connectAttr "aiStandard1.msg" "materialInfo125.t" -na;
relationship "link" ":lightLinker1" ":initialShadingGroup.message" ":defaultLightSet.message";
relationship "link" ":lightLinker1" ":initialParticleSE.message" ":defaultLightSet.message";
relationship "link" ":lightLinker1" "aiStandard1SG.message" ":defaultLightSet.message";
relationship "shadowLink" ":lightLinker1" ":initialShadingGroup.message" ":defaultLightSet.message";
relationship "shadowLink" ":lightLinker1" ":initialParticleSE.message" ":defaultLightSet.message";
relationship "shadowLink" ":lightLinker1" "aiStandard1SG.message" ":defaultLightSet.message";
connectAttr "aiStandard1SG.pa" ":renderPartition.st" -na;
connectAttr "aiStandard1.msg" ":defaultShaderList1.s" -na;
// End of arnold_std.ma
